%!PS-Adobe-3.0 EPSF-3.0
%%BoundingBox: 250 593 364 667
%%Creator: mschulze with JaxoDraw-2.1-0
%%Title: 
%%CreationDate: 9/10/2019
%%BeginProlog
/imStr 0 def /imageSrc {currentfile /ASCII85Decode filter /RunLengthDecode filter  imStr readstring pop } def
/BD {bind def} bind def
/D {def} BD
/C {curveto} BD
/L {lineto} BD
/M {moveto} BD
/R {grestore} BD
/G {gsave} BD
/N {newpath} BD
/P {closepath} BD
/EC {eoclip} BD
/WC {clip} BD
/EF {eofill} BD
/WF {fill} BD
/SG {setgray} BD
/SC {setrgbcolor} BD
/ISOF {
     dup findfont dup length 1 add dict begin {
             1 index /FID eq {pop pop} {D} ifelse
     } forall /Encoding ISOLatin1Encoding D
     currentdict end definefont
} BD
/NZ {dup 1 lt {pop 1} if} BD
/S {
     moveto 1 index stringwidth pop NZ sub
     1 index length 1 sub NZ div 0
     3 2 roll ashow newpath} BD
/FL [
    /AvantGarde-Book ISOF
    /AvantGarde-BookOblique ISOF
    /AvantGarde-Demi ISOF
    /AvantGarde-DemiOblique ISOF
    /Bookman-Demi ISOF
    /Bookman-DemiItalic ISOF
    /Bookman-Light ISOF
    /Bookman-LightItalic ISOF
    /Courier ISOF
    /Courier-Bold ISOF
    /Courier-BoldOblique ISOF
    /Courier-Oblique ISOF
    /Helvetica ISOF
    /Helvetica-Bold ISOF
    /Helvetica-BoldOblique ISOF
    /Helvetica-Narrow ISOF
    /Helvetica-Narrow-Bold ISOF
    /Helvetica-Narrow-BoldOblique ISOF
    /Helvetica-Narrow-Oblique ISOF
    /Helvetica-Oblique ISOF
    /NewCenturySchlbk-Bold ISOF
    /NewCenturySchlbk-BoldItalic ISOF
    /NewCenturySchlbk-Italic ISOF
    /NewCenturySchlbk-Roman ISOF
    /Palatino-Bold ISOF
    /Palatino-BoldItalic ISOF
    /Palatino-Italic ISOF
    /Palatino-Roman ISOF
    /Symbol findfont
    /Times-Bold ISOF
    /Times-BoldItalic ISOF
    /Times-Italic ISOF
    /Times-Roman ISOF
    /ZapfDingbats findfont
    /ZapfChancery-MediumItalic ISOF
] D
/F {
     FL exch get exch scalefont
     [1 0 0 -1 0 0] makefont setfont} BD
%%EndProlog
%%BeginSetup
<< /PageSize [612.0 792.0] /DeferredMediaSelection true /ImagingBBox null /ManualFeed false /NumCopies 1 >> pop 
%%EndSetup
%%Page: 1 1
/pgSave save def
792.0 0 exch translate 1 -1 scale[72 300.0 div 0 0 72 300.0 div 0 0]concat
G
[4.1666665 0.0 0.0 4.1666665 300.0 300.0] concat
N
0.0 0.0 M
468.0 0.0 L
468.0 648.0 L
0.0 648.0 L
0.0 0.0 L
P
WC
N
228.832 59.554 M
228.832 59.554 L
229.811 56.993 230.71 54.883 231.839 54.121 C
231.839 54.121 L
232.363 53.768 233.024 53.622 233.704 53.882 C
233.704 53.882 L
233.872 53.946 234.025 54.029 234.161 54.121 C
234.161 54.121 L
235.29 54.883 236.189 56.993 237.168 59.554 C
236.0 60.0 L
237.168 59.554 L
238.284 62.477 238.925 63.596 239.237 63.807 C
239.237 63.807 L
239.199 63.78 239.011 63.707 238.812 63.783 C
238.812 63.783 L
238.779 63.796 238.762 63.807 238.763 63.807 C
238.763 63.807 L
239.075 63.596 239.716 62.477 240.832 59.554 C
242.0 60.0 L
240.832 59.554 L
241.811 56.993 242.71 54.883 243.839 54.121 C
243.839 54.121 L
244.363 53.768 245.024 53.622 245.704 53.882 C
245.704 53.882 L
245.872 53.946 246.025 54.029 246.161 54.121 C
246.161 54.121 L
247.29 54.883 248.189 56.993 249.168 59.554 C
248.0 60.0 L
249.168 59.554 L
250.284 62.477 250.925 63.596 251.237 63.807 C
251.237 63.807 L
251.199 63.78 251.011 63.707 250.812 63.783 C
250.812 63.783 L
250.779 63.796 250.762 63.807 250.763 63.807 C
250.763 63.807 L
251.075 63.596 251.716 62.477 252.832 59.554 C
254.0 60.0 L
252.832 59.554 L
253.811 56.993 254.71 54.883 255.839 54.121 C
255.839 54.121 L
256.363 53.768 257.024 53.622 257.704 53.882 C
257.704 53.882 L
257.872 53.946 258.025 54.029 258.161 54.121 C
258.161 54.121 L
259.29 54.883 260.189 56.993 261.168 59.554 C
260.0 60.0 L
261.168 59.554 L
262.284 62.477 262.925 63.596 263.237 63.807 C
263.237 63.807 L
263.199 63.78 263.011 63.707 262.812 63.783 C
262.812 63.783 L
262.779 63.796 262.762 63.807 262.763 63.807 C
262.763 63.807 L
263.075 63.596 263.716 62.477 264.832 59.554 C
266.0 60.0 L
264.832 59.554 L
265.811 56.993 266.71 54.883 267.839 54.121 C
267.839 54.121 L
268.363 53.768 269.024 53.622 269.704 53.882 C
269.704 53.882 L
269.872 53.946 270.025 54.029 270.161 54.121 C
270.161 54.121 L
271.29 54.883 272.189 56.993 273.168 59.554 C
272.0 60.0 L
273.168 59.554 L
274.284 62.477 274.925 63.596 275.237 63.807 C
275.237 63.807 L
275.199 63.78 275.011 63.707 274.812 63.783 C
274.812 63.783 L
274.779 63.796 274.762 63.807 274.763 63.807 C
274.763 63.807 L
275.075 63.596 275.716 62.477 276.832 59.554 C
278.0 60.0 L
276.832 59.554 L
277.811 56.993 278.71 54.883 279.839 54.121 C
279.839 54.121 L
280.363 53.768 281.024 53.622 281.704 53.882 C
281.704 53.882 L
281.872 53.946 282.025 54.029 282.161 54.121 C
282.161 54.121 L
283.29 54.883 284.189 56.993 285.168 59.554 C
284.0 60.0 L
285.168 59.554 L
286.284 62.477 286.925 63.596 287.237 63.807 C
287.237 63.807 L
287.199 63.78 287.011 63.707 286.812 63.783 C
286.812 63.783 L
286.779 63.796 286.762 63.807 286.763 63.807 C
286.763 63.807 L
287.075 63.596 287.716 62.477 288.832 59.554 C
289.278 58.386 L
291.614 59.278 L
291.168 60.446 L
290.189 63.007 289.29 65.117 288.161 65.879 C
288.161 65.879 L
288.025 65.971 287.872 66.054 287.704 66.118 C
287.704 66.118 L
287.024 66.378 286.363 66.232 285.839 65.879 C
285.839 65.879 L
284.71 65.117 283.811 63.007 282.832 60.446 C
282.832 60.446 L
282.832 60.446 L
281.716 57.523 281.075 56.404 280.763 56.194 C
280.763 56.194 L
280.762 56.193 280.779 56.204 280.812 56.217 C
280.812 56.217 L
281.011 56.293 281.199 56.22 281.237 56.194 C
281.237 56.194 L
280.925 56.404 280.284 57.523 279.168 60.446 C
279.168 60.446 L
279.168 60.446 L
278.189 63.007 277.29 65.117 276.161 65.879 C
276.161 65.879 L
276.025 65.971 275.872 66.054 275.704 66.118 C
275.704 66.118 L
275.024 66.378 274.363 66.232 273.839 65.879 C
273.839 65.879 L
272.71 65.117 271.811 63.007 270.832 60.446 C
270.832 60.446 L
270.832 60.446 L
269.716 57.523 269.075 56.404 268.763 56.194 C
268.763 56.194 L
268.762 56.193 268.779 56.204 268.812 56.217 C
268.812 56.217 L
269.011 56.293 269.199 56.22 269.237 56.194 C
269.237 56.194 L
268.925 56.404 268.284 57.523 267.168 60.446 C
267.168 60.446 L
267.168 60.446 L
266.189 63.007 265.29 65.117 264.161 65.879 C
264.161 65.879 L
264.025 65.971 263.872 66.054 263.704 66.118 C
263.704 66.118 L
263.024 66.378 262.363 66.232 261.839 65.879 C
261.839 65.879 L
260.71 65.117 259.811 63.007 258.832 60.446 C
258.832 60.446 L
258.832 60.446 L
257.716 57.523 257.075 56.404 256.763 56.194 C
256.763 56.194 L
256.762 56.193 256.779 56.204 256.812 56.217 C
256.812 56.217 L
257.011 56.293 257.199 56.22 257.237 56.194 C
257.237 56.194 L
256.925 56.404 256.284 57.523 255.168 60.446 C
255.168 60.446 L
255.168 60.446 L
254.189 63.007 253.29 65.117 252.161 65.879 C
252.161 65.879 L
252.025 65.971 251.872 66.054 251.704 66.118 C
251.704 66.118 L
251.024 66.378 250.363 66.232 249.839 65.879 C
249.839 65.879 L
248.71 65.117 247.811 63.007 246.832 60.446 C
246.832 60.446 L
246.832 60.446 L
245.716 57.523 245.075 56.404 244.763 56.194 C
244.763 56.194 L
244.762 56.193 244.779 56.204 244.812 56.217 C
244.812 56.217 L
245.011 56.293 245.199 56.22 245.237 56.194 C
245.237 56.194 L
244.925 56.404 244.284 57.523 243.168 60.446 C
243.168 60.446 L
243.168 60.446 L
242.189 63.007 241.29 65.117 240.161 65.879 C
240.161 65.879 L
240.025 65.971 239.872 66.054 239.704 66.118 C
239.704 66.118 L
239.024 66.378 238.363 66.232 237.839 65.879 C
237.839 65.879 L
236.71 65.117 235.811 63.007 234.832 60.446 C
234.832 60.446 L
234.832 60.446 L
233.716 57.523 233.075 56.404 232.763 56.194 C
232.763 56.194 L
232.762 56.193 232.779 56.204 232.812 56.217 C
232.812 56.217 L
233.011 56.293 233.199 56.22 233.237 56.194 C
233.237 56.194 L
232.925 56.404 232.284 57.523 231.168 60.446 C
230.722 61.614 L
228.386 60.722 L
P
G
WC
WF
R N
N
228.832 119.554 M
228.832 119.554 L
229.811 116.993 230.71 114.883 231.839 114.121 C
231.839 114.121 L
232.363 113.768 233.024 113.622 233.704 113.882 C
233.704 113.882 L
233.872 113.946 234.025 114.029 234.161 114.121 C
234.161 114.121 L
235.29 114.883 236.189 116.993 237.168 119.554 C
236.0 120.0 L
237.168 119.554 L
238.284 122.477 238.925 123.596 239.237 123.806 C
239.237 123.806 L
239.199 123.78 239.011 123.707 238.812 123.783 C
238.812 123.783 L
238.779 123.796 238.762 123.807 238.763 123.806 C
238.763 123.806 L
239.075 123.596 239.716 122.477 240.832 119.554 C
242.0 120.0 L
240.832 119.554 L
241.811 116.993 242.71 114.883 243.839 114.121 C
243.839 114.121 L
244.363 113.768 245.024 113.622 245.704 113.882 C
245.704 113.882 L
245.872 113.946 246.025 114.029 246.161 114.121 C
246.161 114.121 L
247.29 114.883 248.189 116.993 249.168 119.554 C
248.0 120.0 L
249.168 119.554 L
250.284 122.477 250.925 123.596 251.237 123.806 C
251.237 123.806 L
251.199 123.78 251.011 123.707 250.812 123.783 C
250.812 123.783 L
250.779 123.796 250.762 123.807 250.763 123.806 C
250.763 123.806 L
251.075 123.596 251.716 122.477 252.832 119.554 C
254.0 120.0 L
252.832 119.554 L
253.811 116.993 254.71 114.883 255.839 114.121 C
255.839 114.121 L
256.363 113.768 257.024 113.622 257.704 113.882 C
257.704 113.882 L
257.872 113.946 258.025 114.029 258.161 114.121 C
258.161 114.121 L
259.29 114.883 260.189 116.993 261.168 119.554 C
260.0 120.0 L
261.168 119.554 L
262.284 122.477 262.925 123.596 263.237 123.806 C
263.237 123.806 L
263.199 123.78 263.011 123.707 262.812 123.783 C
262.812 123.783 L
262.779 123.796 262.762 123.807 262.763 123.806 C
262.763 123.806 L
263.075 123.596 263.716 122.477 264.832 119.554 C
266.0 120.0 L
264.832 119.554 L
265.811 116.993 266.71 114.883 267.839 114.121 C
267.839 114.121 L
268.363 113.768 269.024 113.622 269.704 113.882 C
269.704 113.882 L
269.872 113.946 270.025 114.029 270.161 114.121 C
270.161 114.121 L
271.29 114.883 272.189 116.993 273.168 119.554 C
272.0 120.0 L
273.168 119.554 L
274.284 122.477 274.925 123.596 275.237 123.806 C
275.237 123.806 L
275.199 123.78 275.011 123.707 274.812 123.783 C
274.812 123.783 L
274.779 123.796 274.762 123.807 274.763 123.806 C
274.763 123.806 L
275.075 123.596 275.716 122.477 276.832 119.554 C
278.0 120.0 L
276.832 119.554 L
277.811 116.993 278.71 114.883 279.839 114.121 C
279.839 114.121 L
280.363 113.768 281.024 113.622 281.704 113.882 C
281.704 113.882 L
281.872 113.946 282.025 114.029 282.161 114.121 C
282.161 114.121 L
283.29 114.883 284.189 116.993 285.168 119.554 C
284.0 120.0 L
285.168 119.554 L
286.284 122.477 286.925 123.596 287.237 123.806 C
287.237 123.806 L
287.199 123.78 287.011 123.707 286.812 123.783 C
286.812 123.783 L
286.779 123.796 286.762 123.807 286.763 123.806 C
286.763 123.806 L
287.075 123.596 287.716 122.477 288.832 119.554 C
289.278 118.386 L
291.614 119.278 L
291.168 120.446 L
290.189 123.007 289.29 125.117 288.161 125.879 C
288.161 125.879 L
288.025 125.971 287.872 126.054 287.704 126.118 C
287.704 126.118 L
287.024 126.378 286.363 126.232 285.839 125.879 C
285.839 125.879 L
284.71 125.117 283.811 123.007 282.832 120.446 C
282.832 120.446 L
281.716 117.523 281.075 116.404 280.763 116.194 C
280.763 116.194 L
280.762 116.193 280.779 116.204 280.812 116.217 C
280.812 116.217 L
281.011 116.293 281.199 116.22 281.237 116.194 C
281.237 116.194 L
280.925 116.404 280.284 117.523 279.168 120.446 C
279.168 120.446 L
278.189 123.007 277.29 125.117 276.161 125.879 C
276.161 125.879 L
276.025 125.971 275.872 126.054 275.704 126.118 C
275.704 126.118 L
275.024 126.378 274.363 126.232 273.839 125.879 C
273.839 125.879 L
272.71 125.117 271.811 123.007 270.832 120.446 C
270.832 120.446 L
269.716 117.523 269.075 116.404 268.763 116.194 C
268.763 116.194 L
268.762 116.193 268.779 116.204 268.812 116.217 C
268.812 116.217 L
269.011 116.293 269.199 116.22 269.237 116.194 C
269.237 116.194 L
268.925 116.404 268.284 117.523 267.168 120.446 C
267.168 120.446 L
266.189 123.007 265.29 125.117 264.161 125.879 C
264.161 125.879 L
264.025 125.971 263.872 126.054 263.704 126.118 C
263.704 126.118 L
263.024 126.378 262.363 126.232 261.839 125.879 C
261.839 125.879 L
260.71 125.117 259.811 123.007 258.832 120.446 C
258.832 120.446 L
257.716 117.523 257.075 116.404 256.763 116.194 C
256.763 116.194 L
256.762 116.193 256.779 116.204 256.812 116.217 C
256.812 116.217 L
257.011 116.293 257.199 116.22 257.237 116.194 C
257.237 116.194 L
256.925 116.404 256.284 117.523 255.168 120.446 C
255.12 120.572 L
255.168 120.446 L
254.189 123.007 253.29 125.117 252.161 125.879 C
252.161 125.879 L
252.025 125.971 251.872 126.054 251.704 126.118 C
251.704 126.118 L
251.024 126.378 250.363 126.232 249.839 125.879 C
249.839 125.879 L
248.71 125.117 247.811 123.007 246.832 120.446 C
246.832 120.446 L
245.716 117.523 245.075 116.404 244.763 116.194 C
244.763 116.194 L
244.762 116.193 244.779 116.204 244.812 116.217 C
244.812 116.217 L
245.011 116.293 245.199 116.22 245.237 116.194 C
245.237 116.194 L
244.925 116.404 244.284 117.523 243.168 120.446 C
243.168 120.446 L
242.189 123.007 241.29 125.117 240.161 125.879 C
240.161 125.879 L
240.025 125.971 239.872 126.054 239.704 126.118 C
239.704 126.118 L
239.024 126.378 238.363 126.232 237.839 125.879 C
237.839 125.879 L
236.71 125.117 235.811 123.007 234.832 120.446 C
234.832 120.446 L
233.716 117.523 233.075 116.404 232.763 116.194 C
232.763 116.194 L
232.762 116.193 232.779 116.204 232.812 116.217 C
232.812 116.217 L
233.011 116.293 233.199 116.22 233.237 116.194 C
233.237 116.194 L
232.925 116.404 232.284 117.523 231.168 120.446 C
230.722 121.614 L
228.386 120.722 L
P
G
WC
WF
R N
N
180.0 118.75 M
180.0 118.75 L
230.0 118.75 L
231.25 118.75 L
231.25 121.25 L
230.0 121.25 L
180.0 121.25 L
178.75 121.25 L
178.75 118.75 L
P
G
WC
WF
R N
N
207.5 120.0 M
202.5 122.0 L
203.5 120.0 L
202.5 118.0 L
P
G
WC
WF
R N
N
207.686 120.464 M
207.686 120.464 L
202.686 122.464 L
201.465 122.953 L
202.053 121.776 L
203.053 119.776 L
203.5 120.0 L
203.053 120.224 L
202.053 118.224 L
201.465 117.047 L
202.686 117.536 L
207.686 119.536 L
208.846 120.0 L
207.686 120.464 L
207.314 119.536 M
207.5 120.0 L
207.314 120.464 L
202.314 118.464 L
202.5 118.0 L
202.947 117.776 L
203.947 119.776 L
204.059 120.0 L
203.947 120.224 L
202.947 122.224 L
202.5 122.0 L
202.314 121.536 L
207.314 119.536 L
P
G
WC
WF
R N
N
228.75 120.0 M
228.75 120.0 L
228.75 60.0 L
228.75 58.75 L
231.25 58.75 L
231.25 60.0 L
231.25 120.0 L
231.25 121.25 L
228.75 121.25 L
P
G
WC
WF
R N
N
230.0 87.5 M
232.0 92.5 L
230.0 91.5 L
228.0 92.5 L
P
G
WC
WF
R N
N
230.464 87.314 M
230.464 87.314 L
232.464 92.314 L
232.953 93.535 L
231.776 92.947 L
229.776 91.947 L
230.0 91.5 L
230.224 91.947 L
228.224 92.947 L
227.047 93.535 L
227.536 92.314 L
229.536 87.314 L
230.0 86.154 L
230.464 87.314 L
229.536 87.686 M
230.0 87.5 L
230.464 87.686 L
228.464 92.686 L
228.0 92.5 L
227.776 92.053 L
229.776 91.053 L
230.0 90.941 L
230.224 91.053 L
232.224 92.053 L
232.0 92.5 L
231.536 92.686 L
229.536 87.686 L
P
G
WC
WF
R N
N
230.0 61.25 M
230.0 61.25 L
180.0 61.25 L
178.75 61.25 L
178.75 58.75 L
180.0 58.75 L
230.0 58.75 L
231.25 58.75 L
231.25 61.25 L
P
G
WC
WF
R N
N
202.5 60.0 M
207.5 58.0 L
206.5 60.0 L
207.5 62.0 L
P
G
WC
WF
R N
N
202.314 59.536 M
202.314 59.536 L
207.314 57.536 L
208.535 57.047 L
207.947 58.224 L
206.947 60.224 L
206.5 60.0 L
206.947 59.776 L
207.947 61.776 L
208.535 62.953 L
207.314 62.464 L
202.314 60.464 L
201.154 60.0 L
202.314 59.536 L
202.686 60.464 M
202.5 60.0 L
202.686 59.536 L
207.686 61.536 L
207.5 62.0 L
207.053 62.224 L
206.053 60.224 L
205.941 60.0 L
206.053 59.776 L
207.053 57.776 L
207.5 58.0 L
207.686 58.464 L
202.686 60.464 L
P
G
WC
WF
R N
pgSave restore
showpage
%%EOF
