%!PS-Adobe-3.0 EPSF-3.0
%%BoundingBox: 180 592 375 668
%%Creator: mschulze with JaxoDraw-2.1-0
%%Title: 
%%CreationDate: 9/10/2019
%%BeginProlog
/imStr 0 def /imageSrc {currentfile /ASCII85Decode filter /RunLengthDecode filter  imStr readstring pop } def
/BD {bind def} bind def
/D {def} BD
/C {curveto} BD
/L {lineto} BD
/M {moveto} BD
/R {grestore} BD
/G {gsave} BD
/N {newpath} BD
/P {closepath} BD
/EC {eoclip} BD
/WC {clip} BD
/EF {eofill} BD
/WF {fill} BD
/SG {setgray} BD
/SC {setrgbcolor} BD
/ISOF {
     dup findfont dup length 1 add dict begin {
             1 index /FID eq {pop pop} {D} ifelse
     } forall /Encoding ISOLatin1Encoding D
     currentdict end definefont
} BD
/NZ {dup 1 lt {pop 1} if} BD
/S {
     moveto 1 index stringwidth pop NZ sub
     1 index length 1 sub NZ div 0
     3 2 roll ashow newpath} BD
/FL [
    /AvantGarde-Book ISOF
    /AvantGarde-BookOblique ISOF
    /AvantGarde-Demi ISOF
    /AvantGarde-DemiOblique ISOF
    /Bookman-Demi ISOF
    /Bookman-DemiItalic ISOF
    /Bookman-Light ISOF
    /Bookman-LightItalic ISOF
    /Courier ISOF
    /Courier-Bold ISOF
    /Courier-BoldOblique ISOF
    /Courier-Oblique ISOF
    /Helvetica ISOF
    /Helvetica-Bold ISOF
    /Helvetica-BoldOblique ISOF
    /Helvetica-Narrow ISOF
    /Helvetica-Narrow-Bold ISOF
    /Helvetica-Narrow-BoldOblique ISOF
    /Helvetica-Narrow-Oblique ISOF
    /Helvetica-Oblique ISOF
    /NewCenturySchlbk-Bold ISOF
    /NewCenturySchlbk-BoldItalic ISOF
    /NewCenturySchlbk-Italic ISOF
    /NewCenturySchlbk-Roman ISOF
    /Palatino-Bold ISOF
    /Palatino-BoldItalic ISOF
    /Palatino-Italic ISOF
    /Palatino-Roman ISOF
    /Symbol findfont
    /Times-Bold ISOF
    /Times-BoldItalic ISOF
    /Times-Italic ISOF
    /Times-Roman ISOF
    /ZapfDingbats findfont
    /ZapfChancery-MediumItalic ISOF
] D
/F {
     FL exch get exch scalefont
     [1 0 0 -1 0 0] makefont setfont} BD
%%EndProlog
%%BeginSetup
<< /PageSize [612.0 792.0] /DeferredMediaSelection true /ImagingBBox null /ManualFeed false /NumCopies 1 >> pop 
%%EndSetup
%%Page: 1 1
/pgSave save def
792.0 0 exch translate 1 -1 scale[72 300.0 div 0 0 72 300.0 div 0 0]concat
G
[4.1666665 0.0 0.0 4.1666665 300.0 300.0] concat
N
0.0 0.0 M
468.0 0.0 L
468.0 648.0 L
0.0 648.0 L
0.0 0.0 L
P
WC
N
203.611 90.0 M
203.611 90.0 L
203.611 103.04 193.04 113.611 180.0 113.611 C
180.0 112.361 L
180.0 113.611 L
166.96 113.611 156.389 103.04 156.389 90.0 C
157.639 90.0 L
156.389 90.0 L
156.389 76.96 166.96 66.389 180.0 66.389 C
180.0 67.639 L
180.0 66.389 L
193.04 66.389 203.611 76.96 203.611 90.0 C
202.361 90.0 L
203.611 90.0 L
201.111 90.0 M
201.111 90.0 L
201.111 78.341 191.659 68.889 180.0 68.889 C
180.0 68.889 L
168.341 68.889 158.889 78.341 158.889 90.0 C
158.889 90.0 L
158.889 101.659 168.341 111.111 180.0 111.111 C
180.0 111.111 L
191.659 111.111 201.111 101.659 201.111 90.0 C
P
G
WC
WF
R N
N
161.224 99.748 M
161.224 99.748 L
162.091 103.959 160.788 109.109 154.5 111.624 C
154.5 111.624 L
154.5 111.624 L
148.086 114.19 143.253 110.256 141.541 105.976 C
141.541 105.976 L
140.242 102.729 140.485 98.382 144.25 96.876 C
144.25 96.876 L
144.25 96.876 L
147.784 95.463 150.83 98.017 152.07 101.117 C
152.07 101.117 L
153.906 105.708 152.48 112.432 144.5 115.624 C
144.5 115.624 L
144.5 115.624 L
136.52 118.816 130.849 114.931 129.013 110.34 C
129.013 110.34 L
127.773 107.24 128.217 103.289 131.75 101.876 C
131.75 101.876 L
131.75 101.876 L
135.284 100.463 138.33 103.017 139.57 106.117 C
139.57 106.117 L
141.406 110.708 139.98 117.432 132.0 120.624 C
132.0 120.624 L
132.0 120.624 L
124.02 123.816 118.349 119.931 116.513 115.34 C
116.513 115.34 L
115.273 112.24 115.717 108.289 119.25 106.876 C
119.25 106.876 L
119.25 106.876 L
123.016 105.37 126.19 108.35 127.489 111.597 C
127.489 111.597 L
129.201 115.877 128.414 122.059 122.0 124.624 C
121.535 123.464 L
122.0 124.624 L
115.712 127.139 111.217 124.309 108.94 120.662 C
108.278 119.602 L
110.398 118.278 L
111.06 119.338 L
112.819 122.155 116.109 124.288 121.071 122.303 C
121.071 122.303 L
121.071 122.303 L
125.844 120.394 126.523 115.915 125.167 112.525 C
125.167 112.525 L
124.039 109.705 121.949 108.489 120.179 109.197 C
119.715 108.036 L
120.179 109.197 L
118.518 109.861 117.834 111.91 118.834 114.412 C
118.834 114.412 L
120.165 117.738 124.39 120.975 131.071 118.303 C
131.535 119.464 L
131.071 118.303 L
137.752 115.631 138.579 110.372 137.249 107.046 C
137.249 107.046 L
136.248 104.544 134.34 103.533 132.679 104.197 C
132.215 103.036 L
132.679 104.197 L
131.018 104.861 130.334 106.91 131.334 109.412 C
131.334 109.412 L
132.665 112.738 136.89 115.975 143.571 113.303 C
144.035 114.464 L
143.571 113.303 L
150.252 110.631 151.079 105.372 149.749 102.046 C
149.749 102.046 L
148.748 99.544 146.84 98.533 145.179 99.197 C
144.715 98.036 L
145.179 99.197 L
143.408 99.905 142.734 102.228 143.862 105.048 C
143.862 105.048 L
145.218 108.438 148.799 111.212 153.571 109.303 C
154.035 110.464 L
153.571 109.303 L
158.533 107.318 159.445 103.504 158.776 100.252 C
158.524 99.028 L
160.972 98.524 L
P
G
WC
WF
R N
N
108.94 59.338 M
108.94 59.338 L
111.217 55.691 115.712 52.861 122.0 55.376 C
122.0 55.376 L
122.0 55.376 L
128.414 57.941 129.201 64.123 127.489 68.403 C
127.489 68.403 L
126.19 71.65 123.016 74.63 119.25 73.124 C
119.25 73.124 L
119.25 73.124 L
115.717 71.711 115.273 67.76 116.513 64.66 C
116.513 64.66 L
118.349 60.069 124.02 56.184 132.0 59.376 C
132.0 59.376 L
132.0 59.376 L
139.98 62.568 141.406 69.292 139.57 73.883 C
139.57 73.883 L
138.33 76.983 135.284 79.537 131.75 78.124 C
131.75 78.124 L
131.75 78.124 L
128.217 76.711 127.773 72.76 129.013 69.66 C
129.013 69.66 L
130.849 65.069 136.52 61.184 144.5 64.376 C
144.5 64.376 L
144.5 64.376 L
152.48 67.568 153.906 74.292 152.07 78.883 C
152.07 78.883 L
150.83 81.983 147.784 84.537 144.25 83.124 C
144.25 83.124 L
144.25 83.124 L
140.485 81.618 140.242 77.271 141.541 74.024 C
141.541 74.024 L
143.253 69.744 148.086 65.81 154.5 68.376 C
154.5 68.376 L
154.5 68.376 L
160.788 70.891 162.091 76.041 161.224 80.252 C
160.972 81.476 L
158.524 80.972 L
158.776 79.748 L
159.445 76.496 158.533 72.682 153.571 70.697 C
154.035 69.536 L
153.571 70.697 L
148.799 68.788 145.218 71.562 143.862 74.952 C
143.862 74.952 L
142.734 77.772 143.408 80.095 145.179 80.803 C
144.715 81.964 L
145.179 80.803 L
146.84 81.467 148.748 80.456 149.749 77.954 C
149.749 77.954 L
151.079 74.628 150.252 69.369 143.571 66.697 C
144.035 65.536 L
143.571 66.697 L
136.89 64.025 132.665 67.262 131.334 70.588 C
131.334 70.588 L
130.334 73.09 131.018 75.139 132.679 75.803 C
132.215 76.964 L
132.679 75.803 L
134.34 76.467 136.248 75.456 137.249 72.954 C
137.249 72.954 L
138.579 69.628 137.752 64.369 131.071 61.697 C
131.535 60.536 L
131.071 61.697 L
124.39 59.025 120.165 62.262 118.834 65.588 C
118.834 65.588 L
117.834 68.09 118.518 70.139 120.179 70.803 C
119.715 71.964 L
120.179 70.803 L
121.949 71.511 124.039 70.295 125.167 67.475 C
125.167 67.475 L
126.523 64.085 125.844 59.606 121.071 57.697 C
121.535 56.536 L
121.071 57.697 L
116.109 55.712 112.819 57.845 111.06 60.662 C
110.398 61.722 L
108.278 60.398 L
P
G
WC
WF
R N
N
217.4 88.75 M
217.4 88.75 L
224.6 88.75 L
225.29 88.75 225.85 89.31 225.85 90.0 C
225.85 90.69 225.29 91.25 224.6 91.25 C
224.6 91.25 L
217.4 91.25 L
216.71 91.25 216.15 90.69 216.15 90.0 C
216.15 89.31 216.71 88.75 217.4 88.75 C
P
231.8 88.75 M
231.8 88.75 L
239.0 88.75 L
239.69 88.75 240.25 89.31 240.25 90.0 C
240.25 90.69 239.69 91.25 239.0 91.25 C
239.0 91.25 L
231.8 91.25 L
231.11 91.25 230.55 90.69 230.55 90.0 C
230.55 89.31 231.11 88.75 231.8 88.75 C
P
246.2 88.75 M
246.2 88.75 L
253.4 88.75 L
254.09 88.75 254.65 89.31 254.65 90.0 C
254.65 90.69 254.09 91.25 253.4 91.25 C
253.4 91.25 L
246.2 91.25 L
245.51 91.25 244.95 90.69 244.95 90.0 C
244.95 89.31 245.51 88.75 246.2 88.75 C
P
203.0 88.75 M
203.0 88.75 L
210.2 88.75 L
210.89 88.75 211.45 89.31 211.45 90.0 C
211.45 90.69 210.89 91.25 210.2 91.25 C
210.2 91.25 L
203.0 91.25 L
202.31 91.25 201.75 90.69 201.75 90.0 C
201.75 89.31 202.31 88.75 203.0 88.75 C
P
G
WC
WF
R N
N
258.794 90.327 M
258.794 90.327 L
258.066 87.645 257.543 85.367 258.055 84.059 C
258.055 84.059 L
258.29 83.459 258.754 82.976 259.441 82.79 C
259.441 82.79 L
259.576 82.753 259.711 82.731 259.841 82.719 C
259.841 82.719 L
261.241 82.594 263.281 83.734 265.652 85.183 C
265.0 86.25 L
265.652 85.183 L
268.367 86.843 269.561 87.324 269.936 87.291 C
269.936 87.291 L
269.886 87.295 269.722 87.355 269.632 87.501 C
269.632 87.501 L
269.621 87.519 269.617 87.53 269.617 87.53 C
269.617 87.53 L
269.754 87.179 269.626 85.898 268.794 82.827 C
270.0 82.5 L
268.794 82.827 L
268.066 80.145 267.543 77.867 268.055 76.559 C
268.055 76.559 L
268.29 75.959 268.754 75.476 269.441 75.29 C
269.441 75.29 L
269.576 75.253 269.711 75.231 269.841 75.219 C
269.841 75.219 L
271.241 75.094 273.281 76.234 275.652 77.683 C
275.0 78.75 L
275.652 77.683 L
278.367 79.343 279.561 79.824 279.936 79.791 C
279.936 79.791 L
279.886 79.795 279.722 79.855 279.632 80.001 C
279.632 80.001 L
279.621 80.019 279.617 80.03 279.617 80.03 C
279.617 80.03 L
279.754 79.679 279.626 78.398 278.794 75.327 C
280.0 75.0 L
278.794 75.327 L
278.066 72.645 277.543 70.367 278.055 69.059 C
278.055 69.059 L
278.29 68.459 278.754 67.976 279.441 67.79 C
279.441 67.79 L
279.576 67.753 279.711 67.731 279.841 67.719 C
279.841 67.719 L
281.241 67.594 283.281 68.734 285.652 70.183 C
285.0 71.25 L
285.652 70.183 L
288.367 71.843 289.561 72.324 289.936 72.291 C
289.936 72.291 L
289.886 72.295 289.722 72.355 289.632 72.501 C
289.632 72.501 L
289.621 72.519 289.617 72.53 289.617 72.53 C
289.617 72.53 L
289.754 72.179 289.626 70.898 288.794 67.827 C
288.794 67.827 L
288.794 67.827 L
288.066 65.145 287.543 62.867 288.055 61.559 C
288.055 61.559 L
288.29 60.959 288.754 60.476 289.441 60.29 C
289.441 60.29 L
289.576 60.253 289.711 60.231 289.841 60.219 C
289.841 60.219 L
291.241 60.094 293.281 61.234 295.652 62.683 C
295.0 63.75 L
295.652 62.683 L
298.367 64.343 299.561 64.824 299.936 64.791 C
299.936 64.791 L
299.886 64.795 299.722 64.855 299.632 65.001 C
299.632 65.001 L
299.621 65.019 299.617 65.03 299.617 65.03 C
299.617 65.03 L
299.754 64.679 299.626 63.398 298.794 60.327 C
298.466 59.121 L
300.879 58.466 L
301.206 59.673 L
301.934 62.355 302.457 64.633 301.945 65.941 C
301.945 65.941 L
301.897 66.063 301.838 66.186 301.765 66.305 C
301.765 66.305 L
301.394 66.913 300.801 67.223 300.159 67.281 C
300.159 67.281 L
298.759 67.406 296.719 66.266 294.348 64.817 C
294.348 64.817 L
291.633 63.157 290.439 62.676 290.064 62.709 C
290.064 62.709 L
290.064 62.709 290.076 62.708 290.096 62.703 C
290.096 62.703 L
290.262 62.658 290.365 62.517 290.383 62.47 C
290.383 62.47 L
290.246 62.821 290.374 64.102 291.206 67.173 C
290.0 67.5 L
291.206 67.173 L
291.934 69.855 292.457 72.133 291.945 73.441 C
291.945 73.441 L
291.897 73.563 291.838 73.686 291.765 73.805 C
291.765 73.805 L
291.394 74.413 290.801 74.723 290.159 74.781 C
290.159 74.781 L
288.759 74.906 286.719 73.766 284.348 72.317 C
284.348 72.317 L
281.633 70.657 280.439 70.176 280.064 70.209 C
280.064 70.209 L
280.064 70.209 280.076 70.208 280.096 70.203 C
280.096 70.203 L
280.262 70.158 280.365 70.017 280.383 69.97 C
280.383 69.97 L
280.246 70.321 280.374 71.602 281.206 74.673 C
281.206 74.673 L
281.934 77.355 282.457 79.633 281.945 80.941 C
281.945 80.941 L
281.897 81.063 281.838 81.186 281.765 81.305 C
281.765 81.305 L
281.394 81.913 280.801 82.223 280.159 82.281 C
280.159 82.281 L
278.759 82.406 276.719 81.266 274.348 79.817 C
274.348 79.817 L
271.633 78.157 270.439 77.676 270.064 77.709 C
270.064 77.709 L
270.064 77.709 270.076 77.708 270.096 77.703 C
270.096 77.703 L
270.262 77.658 270.365 77.517 270.383 77.47 C
270.383 77.47 L
270.246 77.821 270.374 79.102 271.206 82.173 C
271.206 82.173 L
271.934 84.855 272.457 87.133 271.945 88.441 C
271.945 88.441 L
271.897 88.563 271.838 88.686 271.765 88.805 C
271.765 88.805 L
271.394 89.413 270.801 89.723 270.159 89.781 C
270.159 89.781 L
268.759 89.906 266.719 88.766 264.348 87.317 C
264.348 87.317 L
261.633 85.657 260.439 85.176 260.064 85.209 C
260.064 85.209 L
260.064 85.209 260.076 85.208 260.096 85.203 C
260.096 85.203 L
260.262 85.158 260.365 85.017 260.383 84.97 C
260.383 84.97 L
260.246 85.321 260.374 86.602 261.206 89.673 C
261.534 90.879 L
259.121 91.534 L
P
G
WC
WF
R N
N
259.348 88.933 M
259.348 88.933 L
261.719 87.484 263.759 86.344 265.159 86.469 C
265.159 86.469 L
265.801 86.527 266.394 86.837 266.765 87.445 C
266.765 87.445 L
266.838 87.564 266.897 87.687 266.945 87.809 C
266.945 87.809 L
267.457 89.117 266.934 91.395 266.206 94.077 C
265.0 93.75 L
266.206 94.077 L
265.374 97.148 265.246 98.429 265.383 98.78 C
265.383 98.78 L
265.365 98.733 265.262 98.592 265.096 98.547 C
265.096 98.547 L
265.076 98.542 265.064 98.541 265.064 98.541 C
265.064 98.541 L
265.439 98.574 266.633 98.093 269.348 96.433 C
270.0 97.5 L
269.348 96.433 L
271.719 94.984 273.759 93.844 275.159 93.969 C
275.159 93.969 L
275.801 94.027 276.394 94.337 276.765 94.945 C
276.765 94.945 L
276.838 95.064 276.897 95.187 276.945 95.309 C
276.945 95.309 L
277.457 96.617 276.934 98.895 276.206 101.577 C
275.0 101.25 L
276.206 101.577 L
275.374 104.648 275.246 105.929 275.383 106.28 C
275.383 106.28 L
275.365 106.233 275.262 106.092 275.096 106.047 C
275.096 106.047 L
275.076 106.042 275.064 106.041 275.064 106.041 C
275.064 106.041 L
275.439 106.074 276.633 105.593 279.348 103.933 C
280.0 105.0 L
279.348 103.933 L
281.719 102.484 283.759 101.344 285.159 101.469 C
285.159 101.469 L
285.801 101.527 286.394 101.837 286.765 102.445 C
286.765 102.445 L
286.838 102.564 286.897 102.687 286.945 102.809 C
286.945 102.809 L
287.457 104.117 286.934 106.395 286.206 109.077 C
285.0 108.75 L
286.206 109.077 L
285.374 112.148 285.246 113.429 285.383 113.78 C
285.383 113.78 L
285.365 113.733 285.262 113.592 285.096 113.547 C
285.096 113.547 L
285.076 113.542 285.064 113.541 285.064 113.541 C
285.064 113.541 L
285.439 113.574 286.633 113.093 289.348 111.433 C
290.0 112.5 L
289.348 111.433 L
291.719 109.984 293.759 108.844 295.159 108.969 C
295.159 108.969 L
295.801 109.027 296.394 109.337 296.765 109.945 C
296.765 109.945 L
296.838 110.064 296.897 110.187 296.945 110.309 C
296.945 110.309 L
297.457 111.617 296.934 113.895 296.206 116.577 C
295.0 116.25 L
296.206 116.577 L
295.374 119.648 295.246 120.929 295.383 121.28 C
295.383 121.28 L
295.365 121.233 295.262 121.092 295.096 121.047 C
295.096 121.047 L
295.076 121.042 295.064 121.041 295.064 121.041 C
295.064 121.041 L
295.439 121.074 296.633 120.593 299.348 118.933 C
300.415 118.282 L
301.718 120.415 L
300.652 121.067 L
298.281 122.516 296.241 123.656 294.841 123.531 C
294.841 123.531 L
294.711 123.519 294.576 123.497 294.441 123.46 C
294.441 123.46 L
293.754 123.274 293.29 122.791 293.055 122.191 C
293.055 122.191 L
292.543 120.883 293.066 118.605 293.794 115.923 C
293.794 115.923 L
294.626 112.852 294.754 111.571 294.617 111.22 C
294.617 111.22 L
294.617 111.22 294.621 111.231 294.632 111.249 C
294.632 111.249 L
294.722 111.395 294.886 111.455 294.936 111.459 C
294.936 111.459 L
294.561 111.426 293.367 111.907 290.652 113.567 C
290.652 113.567 L
288.281 115.016 286.241 116.156 284.841 116.031 C
284.841 116.031 L
284.711 116.019 284.576 115.997 284.441 115.96 C
284.441 115.96 L
283.754 115.774 283.29 115.291 283.055 114.691 C
283.055 114.691 L
282.543 113.383 283.066 111.105 283.794 108.423 C
283.794 108.423 L
284.626 105.352 284.754 104.071 284.617 103.72 C
284.617 103.72 L
284.617 103.72 284.621 103.731 284.632 103.749 C
284.632 103.749 L
284.722 103.895 284.886 103.955 284.936 103.959 C
284.936 103.959 L
284.561 103.926 283.367 104.407 280.652 106.067 C
280.652 106.067 L
278.281 107.516 276.241 108.656 274.841 108.531 C
274.841 108.531 L
274.711 108.519 274.576 108.497 274.441 108.46 C
274.441 108.46 L
273.754 108.274 273.29 107.791 273.055 107.191 C
273.055 107.191 L
272.543 105.883 273.066 103.605 273.794 100.923 C
273.794 100.923 L
274.626 97.852 274.754 96.571 274.617 96.22 C
274.617 96.22 L
274.617 96.22 274.621 96.231 274.632 96.249 C
274.632 96.249 L
274.722 96.395 274.886 96.455 274.936 96.459 C
274.936 96.459 L
274.561 96.426 273.367 96.907 270.652 98.567 C
270.652 98.567 L
268.281 100.016 266.241 101.156 264.841 101.031 C
264.841 101.031 L
264.711 101.019 264.576 100.997 264.441 100.96 C
264.441 100.96 L
263.754 100.774 263.29 100.291 263.055 99.691 C
263.055 99.691 L
262.543 98.383 263.066 96.105 263.794 93.423 C
263.794 93.423 L
264.626 90.352 264.754 89.071 264.617 88.72 C
264.617 88.72 L
264.617 88.72 264.621 88.731 264.632 88.749 C
264.632 88.749 L
264.722 88.895 264.886 88.955 264.936 88.959 C
264.936 88.959 L
264.561 88.926 263.367 89.407 260.652 91.067 C
259.585 91.718 L
258.282 89.585 L
P
G
WC
WF
R N
pgSave restore
showpage
%%EOF
