%!PS-Adobe-3.0 EPSF-3.0
%%BoundingBox: 199 447 362 556
%%Creator: mschulze with JaxoDraw-2.1-0
%%Title: 
%%CreationDate: 28/6/2018
%%BeginProlog
/imStr 0 def /imageSrc {currentfile /ASCII85Decode filter /RunLengthDecode filter  imStr readstring pop } def
/BD {bind def} bind def
/D {def} BD
/C {curveto} BD
/L {lineto} BD
/M {moveto} BD
/R {grestore} BD
/G {gsave} BD
/N {newpath} BD
/P {closepath} BD
/EC {eoclip} BD
/WC {clip} BD
/EF {eofill} BD
/WF {fill} BD
/SG {setgray} BD
/SC {setrgbcolor} BD
/ISOF {
     dup findfont dup length 1 add dict begin {
             1 index /FID eq {pop pop} {D} ifelse
     } forall /Encoding ISOLatin1Encoding D
     currentdict end definefont
} BD
/NZ {dup 1 lt {pop 1} if} BD
/S {
     moveto 1 index stringwidth pop NZ sub
     1 index length 1 sub NZ div 0
     3 2 roll ashow newpath} BD
/FL [
    /AvantGarde-Book ISOF
    /AvantGarde-BookOblique ISOF
    /AvantGarde-Demi ISOF
    /AvantGarde-DemiOblique ISOF
    /Bookman-Demi ISOF
    /Bookman-DemiItalic ISOF
    /Bookman-Light ISOF
    /Bookman-LightItalic ISOF
    /Courier ISOF
    /Courier-Bold ISOF
    /Courier-BoldOblique ISOF
    /Courier-Oblique ISOF
    /Helvetica ISOF
    /Helvetica-Bold ISOF
    /Helvetica-BoldOblique ISOF
    /Helvetica-Narrow ISOF
    /Helvetica-Narrow-Bold ISOF
    /Helvetica-Narrow-BoldOblique ISOF
    /Helvetica-Narrow-Oblique ISOF
    /Helvetica-Oblique ISOF
    /NewCenturySchlbk-Bold ISOF
    /NewCenturySchlbk-BoldItalic ISOF
    /NewCenturySchlbk-Italic ISOF
    /NewCenturySchlbk-Roman ISOF
    /Palatino-Bold ISOF
    /Palatino-BoldItalic ISOF
    /Palatino-Italic ISOF
    /Palatino-Roman ISOF
    /Symbol findfont
    /Times-Bold ISOF
    /Times-BoldItalic ISOF
    /Times-Italic ISOF
    /Times-Roman ISOF
    /ZapfDingbats findfont
    /ZapfChancery-MediumItalic ISOF
] D
/F {
     FL exch get exch scalefont
     [1 0 0 -1 0 0] makefont setfont} BD
%%EndProlog
%%BeginSetup
<< /PageSize [612.0 792.0] /DeferredMediaSelection true /ImagingBBox null /ManualFeed false /NumCopies 1 >> pop 
%%EndSetup
%%Page: 1 1
/pgSave save def
792.0 0 exch translate 1 -1 scale[72 300 div 0 0 72 300 div 0 0]concat
G
[4.1666665 0.0 0.0 4.1666665 300.0 300.0] concat
N
0.0 0.0 M
468.0 0.0 L
468.0 648.0 L
0.0 648.0 L
0.0 0.0 L
P
WC
N
144.4 223.5 M
144.4 223.5 L
152.6 223.5 L
152.876 223.5 153.1 223.724 153.1 224.0 C
153.1 224.276 152.876 224.5 152.6 224.5 C
152.6 224.5 L
144.4 224.5 L
144.124 224.5 143.9 224.276 143.9 224.0 C
143.9 223.724 144.124 223.5 144.4 223.5 C
P
160.8 223.5 M
160.8 223.5 L
169.0 223.5 L
169.276 223.5 169.5 223.724 169.5 224.0 C
169.5 224.276 169.276 224.5 169.0 224.5 C
169.0 224.5 L
160.8 224.5 L
160.524 224.5 160.3 224.276 160.3 224.0 C
160.3 223.724 160.524 223.5 160.8 223.5 C
P
177.2 223.5 M
177.2 223.5 L
185.4 223.5 L
185.676 223.5 185.9 223.724 185.9 224.0 C
185.9 224.276 185.676 224.5 185.4 224.5 C
185.4 224.5 L
177.2 224.5 L
176.924 224.5 176.7 224.276 176.7 224.0 C
176.7 223.724 176.924 223.5 177.2 223.5 C
P
128.0 223.5 M
128.0 223.5 L
136.2 223.5 L
136.476 223.5 136.7 223.724 136.7 224.0 C
136.7 224.276 136.476 224.5 136.2 224.5 C
136.2 224.5 L
128.0 224.5 L
127.724 224.5 127.5 224.276 127.5 224.0 C
127.5 223.724 127.724 223.5 128.0 223.5 C
P
G
WC
WF
R N
N
191.518 224.134 M
191.518 224.134 L
190.225 219.482 189.438 216.087 191.193 215.599 C
191.193 215.599 L
192.484 215.24 194.872 216.906 198.309 219.607 C
198.0 220.0 L
198.309 219.607 L
202.8 223.136 204.333 223.773 204.658 223.358 C
204.658 223.358 L
205.085 222.815 204.786 220.694 203.518 216.134 C
204.0 216.0 L
203.518 216.134 L
202.225 211.482 201.438 208.087 203.193 207.599 C
203.193 207.599 L
204.484 207.24 206.872 208.906 210.309 211.607 C
210.0 212.0 L
210.309 211.607 L
214.8 215.136 216.333 215.773 216.658 215.358 C
216.658 215.358 L
217.085 214.815 216.786 212.694 215.518 208.134 C
216.0 208.0 L
215.518 208.134 L
214.225 203.482 213.438 200.087 215.193 199.599 C
215.193 199.599 L
216.484 199.24 218.872 200.906 222.309 203.607 C
222.0 204.0 L
222.309 203.607 L
226.8 207.136 228.333 207.773 228.658 207.358 C
228.658 207.358 L
229.085 206.815 228.786 204.694 227.518 200.134 C
228.0 200.0 L
227.518 200.134 L
226.225 195.482 225.438 192.087 227.193 191.599 C
227.193 191.599 L
228.484 191.24 230.872 192.906 234.309 195.607 C
234.0 196.0 L
234.309 195.607 L
238.8 199.136 240.333 199.773 240.658 199.358 C
240.658 199.358 L
241.085 198.815 240.786 196.694 239.518 192.134 C
239.384 191.652 L
240.348 191.384 L
240.482 191.866 L
241.653 196.078 242.272 198.922 241.445 199.976 C
241.445 199.976 L
240.319 201.409 237.488 199.376 233.691 196.393 C
233.691 196.393 L
229.969 193.469 228.126 192.377 227.461 192.562 C
227.461 192.562 L
226.953 192.703 226.952 194.363 228.482 199.866 C
228.482 199.866 L
229.653 204.078 230.272 206.922 229.445 207.976 C
229.445 207.976 L
228.319 209.409 225.488 207.376 221.691 204.393 C
221.691 204.393 L
217.969 201.469 216.126 200.377 215.461 200.562 C
215.461 200.562 L
214.953 200.703 214.952 202.363 216.482 207.866 C
216.482 207.866 L
217.653 212.078 218.272 214.922 217.445 215.976 C
217.445 215.976 L
216.319 217.409 213.488 215.376 209.691 212.393 C
209.691 212.393 L
205.969 209.469 204.126 208.377 203.461 208.562 C
203.461 208.562 L
202.953 208.703 202.952 210.363 204.482 215.866 C
204.482 215.866 L
205.653 220.078 206.272 222.922 205.445 223.976 C
205.445 223.976 L
204.319 225.409 201.488 223.376 197.691 220.393 C
197.691 220.393 L
193.969 217.469 192.126 216.377 191.461 216.562 C
191.461 216.562 L
190.953 216.703 190.952 218.363 192.482 223.866 C
192.616 224.348 L
191.652 224.616 L
P
G
WC
WF
R N
N
196.243 224.0 M
196.243 226.343 194.343 228.243 192.0 228.243 C
189.657 228.243 187.757 226.343 187.757 224.0 C
187.757 221.657 189.657 219.757 192.0 219.757 C
194.343 219.757 196.243 221.657 196.243 224.0 C
P
G
WC
WF
R N
N
196.743 224.0 M
196.743 224.0 L
196.743 226.619 194.619 228.743 192.0 228.743 C
192.0 228.243 L
192.0 228.743 L
189.381 228.743 187.257 226.619 187.257 224.0 C
187.757 224.0 L
187.257 224.0 L
187.257 221.381 189.381 219.257 192.0 219.257 C
192.0 219.757 L
192.0 219.257 L
194.619 219.257 196.743 221.381 196.743 224.0 C
196.243 224.0 L
196.743 224.0 L
195.743 224.0 M
195.743 224.0 L
195.743 221.933 194.067 220.257 192.0 220.257 C
192.0 220.257 L
189.933 220.257 188.257 221.933 188.257 224.0 C
188.257 224.0 L
188.257 226.067 189.933 227.743 192.0 227.743 C
192.0 227.743 L
194.067 227.743 195.743 226.067 195.743 224.0 C
P
G
WC
WF
R N
N
192.277 223.584 M
192.277 223.584 L
240.277 255.584 L
240.693 255.861 L
240.139 256.693 L
239.723 256.416 L
191.723 224.416 L
191.307 224.139 L
191.861 223.307 L
P
G
WC
WF
R N
N
218.912 241.941 M
211.535 240.388 L
214.253 238.835 L
214.641 235.729 L
P
G
WC
WF
R N
N
218.809 242.431 M
218.809 242.431 L
211.432 240.878 L
210.145 240.607 L
211.287 239.954 L
214.005 238.401 L
214.253 238.835 L
213.757 238.773 L
214.145 235.667 L
214.308 234.362 L
215.053 235.446 L
219.324 241.658 L
220.032 242.688 L
218.809 242.431 L
219.015 241.452 M
218.912 241.941 L
218.5 242.225 L
214.229 236.012 L
214.641 235.729 L
215.137 235.791 L
214.749 238.897 L
214.718 239.145 L
214.501 239.269 L
211.783 240.822 L
211.535 240.388 L
211.638 239.899 L
219.015 241.452 L
P
G
WC
WF
R N
N
223.584 272.277 M
223.584 272.277 L
191.584 224.277 L
191.307 223.861 L
192.139 223.307 L
192.416 223.723 L
224.416 271.723 L
224.693 272.139 L
223.861 272.693 L
P
G
WC
WF
R N
N
206.059 245.088 M
212.271 249.359 L
209.165 249.747 L
207.612 252.465 L
P
G
WC
WF
R N
N
206.342 244.676 M
206.342 244.676 L
212.554 248.947 L
213.638 249.692 L
212.333 249.855 L
209.227 250.243 L
209.165 249.747 L
209.599 249.995 L
208.046 252.713 L
207.393 253.855 L
207.122 252.568 L
205.569 245.191 L
205.312 243.968 L
206.342 244.676 L
205.775 245.5 M
206.059 245.088 L
206.548 244.985 L
208.101 252.362 L
207.612 252.465 L
207.178 252.217 L
208.731 249.499 L
208.855 249.282 L
209.103 249.251 L
212.209 248.863 L
212.271 249.359 L
211.988 249.771 L
205.775 245.5 L
P
G
WC
WF
R N
N
283.266 165.423 M
283.266 165.423 L
240.266 192.423 L
239.842 192.689 L
239.311 191.842 L
239.734 191.577 L
282.734 164.577 L
283.158 164.311 L
283.689 165.158 L
P
G
WC
WF
R N
N
259.383 179.829 M
262.554 175.477 L
262.77 177.702 L
264.681 178.864 L
P
G
WC
WF
R N
N
258.979 179.535 M
258.979 179.535 L
262.15 175.182 L
262.924 174.119 L
263.051 175.428 L
263.268 177.654 L
262.77 177.702 L
263.03 177.275 L
264.941 178.437 L
266.064 179.121 L
264.77 179.356 L
259.472 180.321 L
258.243 180.545 L
258.979 179.535 L
259.787 180.124 M
259.383 179.829 L
259.293 179.338 L
264.591 178.372 L
264.681 178.864 L
264.421 179.292 L
262.511 178.13 L
262.297 178.0 L
262.273 177.751 L
262.056 175.525 L
262.554 175.477 L
262.958 175.771 L
259.787 180.124 L
P
G
WC
WF
R N
N
239.939 191.504 M
239.939 191.504 L
288.939 185.504 L
289.436 185.443 L
289.557 186.436 L
289.061 186.496 L
240.061 192.496 L
239.564 192.557 L
239.443 191.564 L
P
G
WC
WF
R N
N
266.981 188.696 M
262.262 191.289 L
263.011 189.182 L
261.775 187.319 L
P
G
WC
WF
R N
N
267.222 189.134 M
267.222 189.134 L
262.502 191.727 L
261.35 192.36 L
261.791 191.121 L
262.54 189.015 L
263.011 189.182 L
262.594 189.459 L
261.359 187.595 L
260.632 186.499 L
261.903 186.835 L
267.109 188.213 L
268.318 188.533 L
267.222 189.134 L
266.741 188.258 M
266.981 188.696 L
266.854 189.18 L
261.648 187.802 L
261.775 187.319 L
262.192 187.042 L
263.428 188.906 L
263.566 189.114 L
263.482 189.35 L
262.733 191.457 L
262.262 191.289 L
262.021 190.851 L
266.741 188.258 L
P
G
WC
WF
R N
pgSave restore
showpage
%%EOF
