%!PS-Adobe-3.0 EPSF-3.0
%%BoundingBox: 199 443 360 552
%%Creator: mschulze with JaxoDraw-2.1-0
%%Title: 
%%CreationDate: 28/6/2018
%%BeginProlog
/imStr 0 def /imageSrc {currentfile /ASCII85Decode filter /RunLengthDecode filter  imStr readstring pop } def
/BD {bind def} bind def
/D {def} BD
/C {curveto} BD
/L {lineto} BD
/M {moveto} BD
/R {grestore} BD
/G {gsave} BD
/N {newpath} BD
/P {closepath} BD
/EC {eoclip} BD
/WC {clip} BD
/EF {eofill} BD
/WF {fill} BD
/SG {setgray} BD
/SC {setrgbcolor} BD
/ISOF {
     dup findfont dup length 1 add dict begin {
             1 index /FID eq {pop pop} {D} ifelse
     } forall /Encoding ISOLatin1Encoding D
     currentdict end definefont
} BD
/NZ {dup 1 lt {pop 1} if} BD
/S {
     moveto 1 index stringwidth pop NZ sub
     1 index length 1 sub NZ div 0
     3 2 roll ashow newpath} BD
/FL [
    /AvantGarde-Book ISOF
    /AvantGarde-BookOblique ISOF
    /AvantGarde-Demi ISOF
    /AvantGarde-DemiOblique ISOF
    /Bookman-Demi ISOF
    /Bookman-DemiItalic ISOF
    /Bookman-Light ISOF
    /Bookman-LightItalic ISOF
    /Courier ISOF
    /Courier-Bold ISOF
    /Courier-BoldOblique ISOF
    /Courier-Oblique ISOF
    /Helvetica ISOF
    /Helvetica-Bold ISOF
    /Helvetica-BoldOblique ISOF
    /Helvetica-Narrow ISOF
    /Helvetica-Narrow-Bold ISOF
    /Helvetica-Narrow-BoldOblique ISOF
    /Helvetica-Narrow-Oblique ISOF
    /Helvetica-Oblique ISOF
    /NewCenturySchlbk-Bold ISOF
    /NewCenturySchlbk-BoldItalic ISOF
    /NewCenturySchlbk-Italic ISOF
    /NewCenturySchlbk-Roman ISOF
    /Palatino-Bold ISOF
    /Palatino-BoldItalic ISOF
    /Palatino-Italic ISOF
    /Palatino-Roman ISOF
    /Symbol findfont
    /Times-Bold ISOF
    /Times-BoldItalic ISOF
    /Times-Italic ISOF
    /Times-Roman ISOF
    /ZapfDingbats findfont
    /ZapfChancery-MediumItalic ISOF
] D
/F {
     FL exch get exch scalefont
     [1 0 0 -1 0 0] makefont setfont} BD
%%EndProlog
%%BeginSetup
<< /PageSize [612.0 792.0] /DeferredMediaSelection true /ImagingBBox null /ManualFeed false /NumCopies 1 >> pop 
%%EndSetup
%%Page: 1 1
/pgSave save def
792.0 0 exch translate 1 -1 scale[72 300 div 0 0 72 300 div 0 0]concat
G
[4.1666665 0.0 0.0 4.1666665 300.0 300.0] concat
N
0.0 0.0 M
468.0 0.0 L
468.0 648.0 L
0.0 648.0 L
0.0 0.0 L
P
WC
N
144.4 223.5 M
144.4 223.5 L
152.6 223.5 L
152.876 223.5 153.1 223.724 153.1 224.0 C
153.1 224.276 152.876 224.5 152.6 224.5 C
152.6 224.5 L
144.4 224.5 L
144.124 224.5 143.9 224.276 143.9 224.0 C
143.9 223.724 144.124 223.5 144.4 223.5 C
P
160.8 223.5 M
160.8 223.5 L
169.0 223.5 L
169.276 223.5 169.5 223.724 169.5 224.0 C
169.5 224.276 169.276 224.5 169.0 224.5 C
169.0 224.5 L
160.8 224.5 L
160.524 224.5 160.3 224.276 160.3 224.0 C
160.3 223.724 160.524 223.5 160.8 223.5 C
P
177.2 223.5 M
177.2 223.5 L
185.4 223.5 L
185.676 223.5 185.9 223.724 185.9 224.0 C
185.9 224.276 185.676 224.5 185.4 224.5 C
185.4 224.5 L
177.2 224.5 L
176.924 224.5 176.7 224.276 176.7 224.0 C
176.7 223.724 176.924 223.5 177.2 223.5 C
P
128.0 223.5 M
128.0 223.5 L
136.2 223.5 L
136.476 223.5 136.7 223.724 136.7 224.0 C
136.7 224.276 136.476 224.5 136.2 224.5 C
136.2 224.5 L
128.0 224.5 L
127.724 224.5 127.5 224.276 127.5 224.0 C
127.5 223.724 127.724 223.5 128.0 223.5 C
P
G
WC
WF
R N
N
191.518 224.134 M
191.518 224.134 L
190.225 219.482 189.438 216.087 191.193 215.599 C
191.193 215.599 L
192.484 215.24 194.872 216.906 198.309 219.607 C
198.0 220.0 L
198.309 219.607 L
202.8 223.136 204.333 223.773 204.658 223.358 C
204.658 223.358 L
205.085 222.815 204.786 220.694 203.518 216.134 C
204.0 216.0 L
203.518 216.134 L
202.225 211.482 201.438 208.087 203.193 207.599 C
203.193 207.599 L
204.484 207.24 206.872 208.906 210.309 211.607 C
210.0 212.0 L
210.309 211.607 L
214.8 215.136 216.333 215.773 216.658 215.358 C
216.658 215.358 L
217.085 214.815 216.786 212.694 215.518 208.134 C
216.0 208.0 L
215.518 208.134 L
214.225 203.482 213.438 200.087 215.193 199.599 C
215.193 199.599 L
216.484 199.24 218.872 200.906 222.309 203.607 C
222.0 204.0 L
222.309 203.607 L
226.8 207.136 228.333 207.773 228.658 207.358 C
228.658 207.358 L
229.085 206.815 228.786 204.694 227.518 200.134 C
228.0 200.0 L
227.518 200.134 L
226.225 195.482 225.438 192.087 227.193 191.599 C
227.193 191.599 L
228.484 191.24 230.872 192.906 234.309 195.607 C
234.0 196.0 L
234.309 195.607 L
238.8 199.136 240.333 199.773 240.658 199.358 C
240.658 199.358 L
241.085 198.815 240.786 196.694 239.518 192.134 C
239.384 191.652 L
240.348 191.384 L
240.482 191.866 L
241.653 196.078 242.272 198.922 241.445 199.976 C
241.445 199.976 L
240.319 201.409 237.488 199.376 233.691 196.393 C
233.691 196.393 L
229.969 193.469 228.126 192.377 227.461 192.562 C
227.461 192.562 L
226.953 192.703 226.952 194.363 228.482 199.866 C
228.482 199.866 L
229.653 204.078 230.272 206.922 229.445 207.976 C
229.445 207.976 L
228.319 209.409 225.488 207.376 221.691 204.393 C
221.691 204.393 L
217.969 201.469 216.126 200.377 215.461 200.562 C
215.461 200.562 L
214.953 200.703 214.952 202.363 216.482 207.866 C
216.482 207.866 L
217.653 212.078 218.272 214.922 217.445 215.976 C
217.445 215.976 L
216.319 217.409 213.488 215.376 209.691 212.393 C
209.691 212.393 L
205.969 209.469 204.126 208.377 203.461 208.562 C
203.461 208.562 L
202.953 208.703 202.952 210.363 204.482 215.866 C
204.482 215.866 L
205.653 220.078 206.272 222.922 205.445 223.976 C
205.445 223.976 L
204.319 225.409 201.488 223.376 197.691 220.393 C
197.691 220.393 L
193.969 217.469 192.126 216.377 191.461 216.562 C
191.461 216.562 L
190.953 216.703 190.952 218.363 192.482 223.866 C
192.616 224.348 L
191.652 224.616 L
P
G
WC
WF
R N
N
191.691 223.607 M
191.691 223.607 L
195.488 220.624 198.319 218.591 199.445 220.024 C
199.445 220.024 L
200.272 221.078 199.653 223.922 198.482 228.134 C
198.0 228.0 L
198.482 228.134 L
196.952 233.637 196.953 235.297 197.461 235.438 C
197.461 235.438 L
198.126 235.623 199.969 234.531 203.691 231.607 C
204.0 232.0 L
203.691 231.607 L
207.488 228.624 210.319 226.591 211.445 228.024 C
211.445 228.024 L
212.272 229.078 211.653 231.922 210.482 236.134 C
210.0 236.0 L
210.482 236.134 L
208.952 241.637 208.953 243.297 209.461 243.438 C
209.461 243.438 L
210.126 243.623 211.969 242.531 215.691 239.607 C
216.0 240.0 L
215.691 239.607 L
219.488 236.624 222.319 234.591 223.445 236.024 C
223.445 236.024 L
224.272 237.078 223.653 239.922 222.482 244.134 C
222.0 244.0 L
222.482 244.134 L
220.952 249.637 220.953 251.297 221.461 251.438 C
221.461 251.438 L
222.126 251.623 223.969 250.531 227.691 247.607 C
227.691 247.607 L
227.691 247.607 L
231.488 244.624 234.319 242.591 235.445 244.024 C
235.445 244.024 L
236.272 245.078 235.653 247.922 234.482 252.134 C
234.0 252.0 L
234.482 252.134 L
232.952 257.637 232.953 259.297 233.461 259.438 C
233.461 259.438 L
234.126 259.623 235.969 258.531 239.691 255.607 C
240.084 255.298 L
240.702 256.084 L
240.309 256.393 L
236.871 259.094 234.484 260.76 233.193 260.401 C
233.193 260.401 L
231.438 259.913 232.225 256.518 233.518 251.866 C
233.566 251.694 L
233.518 251.866 L
234.786 247.306 235.085 245.184 234.659 244.642 C
234.659 244.642 L
234.333 244.227 232.8 244.864 228.309 248.393 C
228.0 248.0 L
228.309 248.393 L
224.872 251.094 222.484 252.76 221.193 252.401 C
221.193 252.401 L
219.438 251.913 220.225 248.518 221.518 243.866 C
221.518 243.866 L
222.786 239.306 223.085 237.185 222.658 236.642 C
222.658 236.642 L
222.333 236.227 220.8 236.864 216.309 240.393 C
216.309 240.393 L
212.872 243.094 210.484 244.76 209.193 244.401 C
209.193 244.401 L
207.438 243.913 208.225 240.518 209.518 235.866 C
209.518 235.866 L
210.786 231.306 211.085 229.185 210.658 228.642 C
210.658 228.642 L
210.333 228.227 208.8 228.864 204.309 232.393 C
204.309 232.393 L
200.872 235.094 198.484 236.76 197.193 236.401 C
197.193 236.401 L
195.438 235.913 196.225 232.518 197.518 227.866 C
197.518 227.866 L
198.786 223.306 199.085 221.185 198.658 220.642 C
198.658 220.642 L
198.333 220.227 196.8 220.864 192.309 224.393 C
191.916 224.702 L
191.298 223.916 L
P
G
WC
WF
R N
N
196.243 224.0 M
196.243 226.343 194.343 228.243 192.0 228.243 C
189.657 228.243 187.757 226.343 187.757 224.0 C
187.757 221.657 189.657 219.757 192.0 219.757 C
194.343 219.757 196.243 221.657 196.243 224.0 C
P
G
WC
WF
R N
N
196.743 224.0 M
196.743 224.0 L
196.743 226.619 194.619 228.743 192.0 228.743 C
192.0 228.243 L
192.0 228.743 L
189.381 228.743 187.257 226.619 187.257 224.0 C
187.757 224.0 L
187.257 224.0 L
187.257 221.381 189.381 219.257 192.0 219.257 C
192.0 219.757 L
192.0 219.257 L
194.619 219.257 196.743 221.381 196.743 224.0 C
196.243 224.0 L
196.743 224.0 L
195.743 224.0 M
195.743 224.0 L
195.743 221.933 194.067 220.257 192.0 220.257 C
192.0 220.257 L
189.933 220.257 188.257 221.933 188.257 224.0 C
188.257 224.0 L
188.257 226.067 189.933 227.743 192.0 227.743 C
192.0 227.743 L
194.067 227.743 195.743 226.067 195.743 224.0 C
P
G
WC
WF
R N
N
282.24 169.439 M
282.24 169.439 L
240.24 192.439 L
239.802 192.679 L
239.321 191.802 L
239.76 191.561 L
281.76 168.561 L
282.198 168.321 L
282.679 169.198 L
P
G
WC
WF
R N
N
258.807 181.701 M
262.232 177.545 L
262.316 179.78 L
264.153 181.053 L
P
G
WC
WF
R N
N
258.421 181.383 M
258.421 181.383 L
261.846 177.227 L
262.683 176.212 L
262.732 177.526 L
262.815 179.761 L
262.316 179.78 L
262.601 179.369 L
264.438 180.642 L
265.519 181.392 L
264.214 181.55 L
258.867 182.197 L
257.626 182.347 L
258.421 181.383 L
259.193 182.019 M
258.807 181.701 L
258.747 181.204 L
264.093 180.557 L
264.153 181.053 L
263.869 181.464 L
262.031 180.19 L
261.825 180.048 L
261.816 179.798 L
261.732 177.564 L
262.232 177.545 L
262.618 177.863 L
259.193 182.019 L
P
G
WC
WF
R N
N
239.937 191.504 M
239.937 191.504 L
286.937 185.504 L
287.433 185.441 L
287.559 186.433 L
287.063 186.496 L
240.063 192.496 L
239.567 192.559 L
239.441 191.567 L
P
G
WC
WF
R N
N
265.98 188.683 M
261.273 191.3 L
262.012 189.19 L
260.767 187.333 L
P
G
WC
WF
R N
N
266.223 189.12 M
266.223 189.12 L
261.516 191.737 L
260.367 192.377 L
260.801 191.135 L
261.54 189.025 L
262.012 189.19 L
261.597 189.468 L
260.352 187.611 L
259.619 186.519 L
260.892 186.849 L
266.105 188.199 L
267.315 188.513 L
266.223 189.12 L
265.737 188.246 M
265.98 188.683 L
265.854 189.167 L
260.641 187.817 L
260.767 187.333 L
261.182 187.054 L
262.427 188.912 L
262.567 189.119 L
262.484 189.355 L
261.745 191.466 L
261.273 191.3 L
261.03 190.864 L
265.737 188.246 L
P
G
WC
WF
R N
N
277.922 262.494 M
277.922 262.494 L
239.922 256.494 L
239.428 256.416 L
239.584 255.428 L
240.078 255.506 L
278.078 261.506 L
278.572 261.584 L
278.416 262.572 L
P
G
WC
WF
R N
N
256.531 258.61 M
261.781 257.414 L
260.482 259.234 L
261.157 261.365 L
P
G
WC
WF
R N
N
256.42 258.123 M
256.42 258.123 L
261.67 256.927 L
262.953 256.635 L
262.188 257.705 L
260.889 259.525 L
260.482 259.234 L
260.958 259.083 L
261.634 261.214 L
262.032 262.468 L
260.902 261.795 L
256.275 259.04 L
255.201 258.4 L
256.42 258.123 L
256.642 259.098 M
256.531 258.61 L
256.786 258.181 L
261.413 260.936 L
261.157 261.365 L
260.681 261.517 L
260.005 259.385 L
259.929 259.147 L
260.075 258.943 L
261.374 257.124 L
261.781 257.414 L
261.892 257.902 L
256.642 259.098 L
P
G
WC
WF
R N
N
240.265 255.576 M
240.265 255.576 L
272.265 275.576 L
272.689 275.841 L
272.159 276.689 L
271.735 276.424 L
239.735 256.424 L
239.311 256.159 L
239.841 255.311 L
P
G
WC
WF
R N
N
258.12 267.325 M
252.82 266.371 L
254.728 265.205 L
254.94 262.979 L
P
G
WC
WF
R N
N
258.031 267.817 M
258.031 267.817 L
252.731 266.863 L
251.437 266.63 L
252.559 265.944 L
254.467 264.778 L
254.728 265.205 L
254.23 265.158 L
254.442 262.932 L
254.567 261.622 L
255.344 262.684 L
258.524 267.03 L
259.262 268.039 L
258.031 267.817 L
258.209 266.833 M
258.12 267.325 L
257.716 267.62 L
254.536 263.274 L
254.94 262.979 L
255.438 263.026 L
255.226 265.252 L
255.202 265.501 L
254.989 265.632 L
253.081 266.798 L
252.82 266.371 L
252.909 265.879 L
258.209 266.833 L
P
G
WC
WF
R N
pgSave restore
showpage
%%EOF
