%!PS-Adobe-3.0 EPSF-3.0
%%BoundingBox: 220 586 374 674
%%Creator: mschulze with JaxoDraw-2.1-0
%%Title: 
%%CreationDate: 9/10/2019
%%BeginProlog
/imStr 0 def /imageSrc {currentfile /ASCII85Decode filter /RunLengthDecode filter  imStr readstring pop } def
/BD {bind def} bind def
/D {def} BD
/C {curveto} BD
/L {lineto} BD
/M {moveto} BD
/R {grestore} BD
/G {gsave} BD
/N {newpath} BD
/P {closepath} BD
/EC {eoclip} BD
/WC {clip} BD
/EF {eofill} BD
/WF {fill} BD
/SG {setgray} BD
/SC {setrgbcolor} BD
/ISOF {
     dup findfont dup length 1 add dict begin {
             1 index /FID eq {pop pop} {D} ifelse
     } forall /Encoding ISOLatin1Encoding D
     currentdict end definefont
} BD
/NZ {dup 1 lt {pop 1} if} BD
/S {
     moveto 1 index stringwidth pop NZ sub
     1 index length 1 sub NZ div 0
     3 2 roll ashow newpath} BD
/FL [
    /AvantGarde-Book ISOF
    /AvantGarde-BookOblique ISOF
    /AvantGarde-Demi ISOF
    /AvantGarde-DemiOblique ISOF
    /Bookman-Demi ISOF
    /Bookman-DemiItalic ISOF
    /Bookman-Light ISOF
    /Bookman-LightItalic ISOF
    /Courier ISOF
    /Courier-Bold ISOF
    /Courier-BoldOblique ISOF
    /Courier-Oblique ISOF
    /Helvetica ISOF
    /Helvetica-Bold ISOF
    /Helvetica-BoldOblique ISOF
    /Helvetica-Narrow ISOF
    /Helvetica-Narrow-Bold ISOF
    /Helvetica-Narrow-BoldOblique ISOF
    /Helvetica-Narrow-Oblique ISOF
    /Helvetica-Oblique ISOF
    /NewCenturySchlbk-Bold ISOF
    /NewCenturySchlbk-BoldItalic ISOF
    /NewCenturySchlbk-Italic ISOF
    /NewCenturySchlbk-Roman ISOF
    /Palatino-Bold ISOF
    /Palatino-BoldItalic ISOF
    /Palatino-Italic ISOF
    /Palatino-Roman ISOF
    /Symbol findfont
    /Times-Bold ISOF
    /Times-BoldItalic ISOF
    /Times-Italic ISOF
    /Times-Roman ISOF
    /ZapfDingbats findfont
    /ZapfChancery-MediumItalic ISOF
] D
/F {
     FL exch get exch scalefont
     [1 0 0 -1 0 0] makefont setfont} BD
%%EndProlog
%%BeginSetup
<< /PageSize [612.0 792.0] /DeferredMediaSelection true /ImagingBBox null /ManualFeed false /NumCopies 1 >> pop 
%%EndSetup
%%Page: 1 1
/pgSave save def
792.0 0 exch translate 1 -1 scale[72 300.0 div 0 0 72 300.0 div 0 0]concat
G
[4.1666665 0.0 0.0 4.1666665 300.0 300.0] concat
N
0.0 0.0 M
468.0 0.0 L
468.0 648.0 L
0.0 648.0 L
0.0 0.0 L
P
WC
N
300.974 110.783 M
300.974 110.783 L
299.953 112.053 298.958 113.196 297.962 113.56 C
297.962 113.56 L
297.285 113.807 296.56 113.731 295.956 113.245 C
295.956 113.245 L
295.892 113.194 295.832 113.14 295.777 113.085 C
295.777 113.085 L
295.021 112.34 294.59 110.887 294.189 109.308 C
294.189 109.308 L
294.189 109.308 L
293.73 107.504 293.424 106.849 293.268 106.695 C
293.268 106.695 L
293.324 106.75 293.515 106.835 293.685 106.792 C
293.685 106.792 L
293.693 106.79 293.697 106.788 293.697 106.788 C
293.697 106.788 L
293.491 106.863 292.941 107.333 291.774 108.783 C
290.8 108.0 L
291.774 108.783 L
290.753 110.053 289.758 111.196 288.762 111.56 C
288.762 111.56 L
288.085 111.807 287.36 111.731 286.756 111.245 C
286.756 111.245 L
286.692 111.194 286.632 111.14 286.577 111.085 C
286.577 111.085 L
285.821 110.34 285.39 108.887 284.989 107.308 C
286.2 107.0 L
284.989 107.308 L
284.53 105.504 284.224 104.849 284.068 104.695 C
284.068 104.695 L
284.124 104.75 284.315 104.835 284.485 104.792 C
284.485 104.792 L
284.493 104.79 284.497 104.788 284.497 104.788 C
284.497 104.788 L
284.291 104.863 283.741 105.333 282.574 106.783 C
282.574 106.783 L
282.574 106.783 L
281.553 108.053 280.558 109.196 279.562 109.56 C
279.562 109.56 L
278.885 109.807 278.16 109.731 277.556 109.245 C
277.556 109.245 L
277.492 109.194 277.432 109.14 277.377 109.085 C
277.377 109.085 L
276.621 108.34 276.19 106.887 275.789 105.308 C
277.0 105.0 L
275.789 105.308 L
275.33 103.504 275.024 102.849 274.868 102.695 C
274.868 102.695 L
274.924 102.75 275.115 102.835 275.285 102.792 C
275.285 102.792 L
275.293 102.79 275.297 102.788 275.297 102.788 C
275.297 102.788 L
275.091 102.863 274.541 103.333 273.374 104.783 C
272.4 104.0 L
273.374 104.783 L
272.353 106.053 271.358 107.196 270.362 107.56 C
270.362 107.56 L
269.685 107.807 268.96 107.731 268.356 107.245 C
268.356 107.245 L
268.292 107.194 268.232 107.14 268.177 107.085 C
268.177 107.085 L
267.421 106.34 266.99 104.887 266.589 103.308 C
266.589 103.308 L
266.589 103.308 L
266.13 101.504 265.824 100.849 265.668 100.695 C
265.668 100.695 L
265.724 100.75 265.915 100.835 266.085 100.792 C
266.085 100.792 L
266.093 100.79 266.097 100.788 266.097 100.788 C
266.097 100.788 L
265.891 100.863 265.341 101.333 264.174 102.783 C
264.174 102.783 L
264.174 102.783 L
263.153 104.053 262.158 105.196 261.162 105.56 C
261.162 105.56 L
260.485 105.807 259.76 105.731 259.156 105.245 C
259.156 105.245 L
259.092 105.194 259.032 105.14 258.977 105.085 C
258.977 105.085 L
258.221 104.34 257.79 102.887 257.389 101.308 C
258.6 101.0 L
257.389 101.308 L
256.93 99.504 256.624 98.849 256.468 98.695 C
256.468 98.695 L
256.524 98.75 256.715 98.835 256.885 98.792 C
256.885 98.792 L
256.893 98.79 256.897 98.788 256.897 98.788 C
256.897 98.788 L
256.691 98.863 256.141 99.333 254.974 100.783 C
254.191 101.757 L
252.243 100.191 L
253.026 99.217 L
254.047 97.947 255.042 96.804 256.038 96.44 C
256.038 96.44 L
256.112 96.413 256.189 96.389 256.268 96.369 C
256.268 96.369 L
257.02 96.178 257.711 96.41 258.223 96.915 C
258.223 96.915 L
258.979 97.66 259.41 99.113 259.811 100.692 C
259.811 100.692 L
259.811 100.692 L
260.27 102.496 260.576 103.151 260.732 103.305 C
260.732 103.305 L
260.732 103.305 260.729 103.302 260.723 103.297 C
260.723 103.297 L
260.586 103.187 260.377 103.185 260.303 103.212 C
260.303 103.212 L
260.509 103.137 261.059 102.667 262.226 101.217 C
263.2 102.0 L
262.226 101.217 L
263.247 99.947 264.242 98.804 265.238 98.44 C
265.238 98.44 L
265.312 98.413 265.389 98.389 265.468 98.369 C
265.468 98.369 L
266.22 98.178 266.911 98.41 267.423 98.915 C
267.423 98.915 L
268.179 99.66 268.61 101.113 269.011 102.692 C
267.8 103.0 L
269.011 102.692 L
269.47 104.496 269.776 105.151 269.932 105.305 C
269.932 105.305 L
269.932 105.305 269.929 105.302 269.923 105.297 C
269.923 105.297 L
269.786 105.187 269.577 105.185 269.503 105.212 C
269.503 105.212 L
269.709 105.137 270.259 104.667 271.426 103.217 C
271.426 103.217 L
271.426 103.217 L
272.447 101.947 273.442 100.804 274.438 100.44 C
274.438 100.44 L
274.512 100.413 274.589 100.389 274.668 100.369 C
274.668 100.369 L
275.42 100.178 276.111 100.41 276.623 100.915 C
276.623 100.915 L
277.379 101.66 277.81 103.113 278.211 104.692 C
278.211 104.692 L
278.211 104.692 L
278.67 106.496 278.976 107.151 279.132 107.305 C
279.132 107.305 L
279.132 107.305 279.129 107.302 279.123 107.297 C
279.123 107.297 L
278.986 107.187 278.777 107.185 278.703 107.212 C
278.703 107.212 L
278.909 107.137 279.459 106.667 280.626 105.217 C
281.6 106.0 L
280.626 105.217 L
281.647 103.947 282.642 102.804 283.638 102.44 C
283.638 102.44 L
283.712 102.413 283.789 102.389 283.868 102.369 C
283.868 102.369 L
284.62 102.178 285.311 102.41 285.823 102.915 C
285.823 102.915 L
286.579 103.66 287.01 105.113 287.411 106.692 C
287.411 106.692 L
287.411 106.692 L
287.87 108.496 288.176 109.151 288.332 109.305 C
288.332 109.305 L
288.332 109.305 288.329 109.302 288.323 109.297 C
288.323 109.297 L
288.186 109.187 287.977 109.185 287.903 109.212 C
287.903 109.212 L
288.109 109.137 288.659 108.667 289.826 107.217 C
289.826 107.217 L
289.826 107.217 L
290.847 105.947 291.842 104.804 292.838 104.44 C
292.838 104.44 L
292.912 104.413 292.989 104.389 293.068 104.369 C
293.068 104.369 L
293.82 104.178 294.511 104.41 295.023 104.915 C
295.023 104.915 L
295.779 105.66 296.21 107.113 296.611 108.692 C
295.4 109.0 L
296.611 108.692 L
297.07 110.496 297.376 111.151 297.532 111.305 C
297.532 111.305 L
297.532 111.305 297.529 111.302 297.523 111.297 C
297.523 111.297 L
297.386 111.187 297.177 111.185 297.103 111.212 C
297.103 111.212 L
297.309 111.137 297.859 110.667 299.026 109.217 C
299.809 108.243 L
301.757 109.809 L
P
G
WC
WF
R N
N
301.207 70.324 M
301.207 70.324 L
300.781 71.913 300.326 73.378 299.539 74.118 C
299.539 74.118 L
299.007 74.618 298.309 74.824 297.566 74.625 C
297.566 74.625 L
297.508 74.61 297.452 74.592 297.397 74.573 C
297.397 74.573 L
296.378 74.218 295.365 73.066 294.329 71.787 C
294.329 71.787 L
294.329 71.787 L
293.143 70.324 292.588 69.86 292.381 69.788 C
292.381 69.788 L
292.457 69.814 292.652 69.803 292.768 69.708 C
292.768 69.708 L
292.771 69.706 292.773 69.704 292.773 69.704 C
292.773 69.704 L
292.613 69.854 292.295 70.505 291.807 72.324 C
291.807 72.324 L
291.807 72.324 L
291.381 73.913 290.926 75.378 290.139 76.118 C
290.139 76.118 L
289.607 76.618 288.909 76.824 288.166 76.625 C
288.166 76.625 L
288.108 76.61 288.052 76.592 287.997 76.573 C
287.997 76.573 L
286.978 76.218 285.965 75.066 284.929 73.787 C
285.9 73.0 L
284.929 73.787 L
283.743 72.324 283.188 71.86 282.981 71.788 C
282.981 71.788 L
283.057 71.814 283.252 71.803 283.368 71.708 C
283.368 71.708 L
283.371 71.706 283.373 71.704 283.373 71.704 C
283.373 71.704 L
283.213 71.854 282.895 72.505 282.407 74.324 C
282.407 74.324 L
282.407 74.324 L
281.981 75.913 281.526 77.378 280.739 78.118 C
280.739 78.118 L
280.207 78.618 279.509 78.824 278.766 78.625 C
278.766 78.625 L
278.708 78.61 278.652 78.592 278.597 78.573 C
278.597 78.573 L
277.578 78.218 276.565 77.066 275.529 75.787 C
276.5 75.0 L
275.529 75.787 L
274.343 74.324 273.788 73.86 273.581 73.788 C
273.581 73.788 L
273.657 73.814 273.852 73.803 273.968 73.708 C
273.968 73.708 L
273.971 73.706 273.973 73.704 273.973 73.704 C
273.973 73.704 L
273.813 73.854 273.495 74.505 273.007 76.324 C
271.8 76.0 L
273.007 76.324 L
272.581 77.913 272.126 79.378 271.339 80.118 C
271.339 80.118 L
270.807 80.618 270.109 80.824 269.366 80.625 C
269.366 80.625 L
269.308 80.61 269.252 80.592 269.197 80.573 C
269.197 80.573 L
268.178 80.218 267.165 79.066 266.129 77.787 C
266.129 77.787 L
266.129 77.787 L
264.943 76.324 264.388 75.86 264.181 75.788 C
264.181 75.788 L
264.257 75.814 264.452 75.803 264.568 75.708 C
264.568 75.708 L
264.571 75.706 264.573 75.704 264.573 75.704 C
264.573 75.704 L
264.413 75.854 264.095 76.505 263.607 78.324 C
262.4 78.0 L
263.607 78.324 L
263.181 79.913 262.726 81.378 261.939 82.118 C
261.939 82.118 L
261.407 82.618 260.709 82.824 259.966 82.625 C
259.966 82.625 L
259.908 82.61 259.852 82.592 259.797 82.573 C
259.797 82.573 L
258.778 82.218 257.765 81.066 256.729 79.787 C
257.7 79.0 L
256.729 79.787 L
255.543 78.324 254.988 77.86 254.781 77.788 C
254.781 77.788 L
254.857 77.814 255.052 77.803 255.168 77.708 C
255.168 77.708 L
255.171 77.706 255.173 77.704 255.173 77.704 C
255.173 77.704 L
255.013 77.854 254.695 78.505 254.207 80.324 C
253.884 81.531 L
251.469 80.884 L
251.793 79.676 L
252.219 78.087 252.674 76.622 253.461 75.882 C
253.461 75.882 L
253.503 75.843 253.547 75.804 253.594 75.766 C
253.594 75.766 L
254.191 75.282 254.913 75.186 255.603 75.427 C
255.603 75.427 L
256.622 75.782 257.635 76.934 258.671 78.213 C
258.671 78.213 L
258.671 78.213 L
259.857 79.676 260.412 80.14 260.619 80.212 C
260.619 80.212 L
260.619 80.213 260.617 80.212 260.613 80.211 C
260.613 80.211 L
260.468 80.172 260.286 80.241 260.227 80.296 C
260.227 80.296 L
260.387 80.146 260.705 79.495 261.193 77.676 C
261.193 77.676 L
261.193 77.676 L
261.619 76.087 262.074 74.622 262.861 73.882 C
262.861 73.882 L
262.903 73.843 262.947 73.804 262.994 73.766 C
262.994 73.766 L
263.591 73.282 264.313 73.186 265.003 73.427 C
265.003 73.427 L
266.022 73.782 267.035 74.934 268.071 76.213 C
267.1 77.0 L
268.071 76.213 L
269.257 77.676 269.813 78.14 270.019 78.212 C
270.019 78.212 L
270.019 78.213 270.017 78.212 270.013 78.211 C
270.013 78.211 L
269.868 78.172 269.686 78.241 269.627 78.296 C
269.627 78.296 L
269.787 78.146 270.105 77.495 270.593 75.676 C
270.593 75.676 L
270.593 75.676 L
271.019 74.087 271.474 72.622 272.261 71.882 C
272.261 71.882 L
272.303 71.843 272.347 71.804 272.394 71.766 C
272.394 71.766 L
272.991 71.282 273.713 71.186 274.403 71.427 C
274.403 71.427 L
275.422 71.782 276.435 72.934 277.471 74.213 C
277.471 74.213 L
278.657 75.676 279.213 76.14 279.419 76.212 C
279.419 76.212 L
279.419 76.213 279.417 76.212 279.413 76.211 C
279.413 76.211 L
279.269 76.172 279.086 76.24 279.027 76.296 C
279.027 76.296 L
279.187 76.146 279.505 75.495 279.993 73.676 C
281.2 74.0 L
279.993 73.676 L
280.419 72.087 280.874 70.622 281.661 69.882 C
281.661 69.882 L
281.703 69.843 281.747 69.804 281.794 69.766 C
281.794 69.766 L
282.391 69.282 283.113 69.186 283.803 69.427 C
283.803 69.427 L
284.822 69.782 285.835 70.934 286.871 72.213 C
286.871 72.213 L
288.057 73.676 288.613 74.14 288.819 74.212 C
288.819 74.212 L
288.819 74.213 288.817 74.212 288.813 74.211 C
288.813 74.211 L
288.669 74.172 288.486 74.24 288.427 74.296 C
288.427 74.296 L
288.587 74.146 288.905 73.495 289.393 71.676 C
290.6 72.0 L
289.393 71.676 L
289.819 70.087 290.274 68.622 291.061 67.882 C
291.061 67.882 L
291.103 67.843 291.147 67.804 291.194 67.766 C
291.194 67.766 L
291.791 67.282 292.513 67.186 293.203 67.427 C
293.203 67.427 L
294.222 67.782 295.235 68.934 296.271 70.213 C
295.3 71.0 L
296.271 70.213 L
297.457 71.676 298.012 72.14 298.219 72.212 C
298.219 72.212 L
298.219 72.213 298.217 72.212 298.213 72.211 C
298.213 72.211 L
298.068 72.172 297.886 72.24 297.827 72.296 C
297.827 72.296 L
297.987 72.146 298.305 71.495 298.793 69.676 C
299.116 68.469 L
301.531 69.116 L
P
G
WC
WF
R N
N
290.781 50.976 M
290.781 50.976 L
240.781 90.976 L
239.805 91.757 L
238.243 89.805 L
239.219 89.024 L
289.219 49.024 L
290.195 48.243 L
291.757 50.195 L
P
G
WC
WF
R N
N
261.486 72.811 M
266.265 64.378 L
267.108 68.313 L
270.763 70.0 L
P
G
WC
WF
R N
N
261.051 72.565 M
261.051 72.565 L
265.83 64.131 L
266.478 62.987 L
266.754 64.273 L
267.597 68.209 L
267.108 68.313 L
267.318 67.859 L
270.972 69.546 L
272.166 70.097 L
270.908 70.479 L
261.631 73.29 L
260.435 73.652 L
261.051 72.565 L
261.921 73.058 M
261.486 72.811 L
261.341 72.333 L
270.618 69.521 L
270.763 70.0 L
270.553 70.454 L
266.899 68.767 L
266.672 68.663 L
266.619 68.418 L
265.776 64.483 L
266.265 64.378 L
266.7 64.624 L
261.921 73.058 L
P
G
WC
WF
R N
N
240.781 89.024 M
240.781 89.024 L
290.781 129.024 L
291.757 129.805 L
290.195 131.757 L
289.219 130.976 L
239.219 90.976 L
238.243 90.195 L
239.805 88.243 L
P
G
WC
WF
R N
N
268.514 112.811 M
259.237 110.0 L
262.892 108.313 L
263.735 104.378 L
P
G
WC
WF
R N
N
268.369 113.29 M
268.369 113.29 L
259.092 110.479 L
257.834 110.097 L
259.028 109.546 L
262.682 107.859 L
262.892 108.313 L
262.403 108.209 L
263.246 104.273 L
263.522 102.987 L
264.17 104.131 L
268.949 112.565 L
269.565 113.652 L
268.369 113.29 L
268.659 112.333 M
268.514 112.811 L
268.079 113.058 L
263.3 104.624 L
263.735 104.378 L
264.224 104.483 L
263.381 108.418 L
263.328 108.663 L
263.101 108.767 L
259.447 110.454 L
259.237 110.0 L
259.382 109.521 L
268.659 112.333 L
P
G
WC
WF
R N
N
188.776 89.745 M
188.776 89.745 L
189.526 86.149 192.55 82.75 198.75 82.75 C
198.75 84.0 L
198.75 82.75 L
204.763 82.75 207.423 87.305 207.423 91.173 C
207.423 91.173 L
207.423 93.989 205.904 97.25 202.5 97.25 C
202.5 96.0 L
202.5 97.25 L
199.329 97.25 197.761 94.386 197.761 91.689 C
197.761 91.689 L
197.761 87.499 201.188 82.75 208.75 82.75 C
208.75 84.0 L
208.75 82.75 L
216.312 82.75 219.739 87.499 219.739 91.689 C
219.739 91.689 L
219.739 94.386 218.171 97.25 215.0 97.25 C
215.0 96.0 L
215.0 97.25 L
211.829 97.25 210.261 94.386 210.261 91.689 C
210.261 91.689 L
210.261 87.499 213.688 82.75 221.25 82.75 C
221.25 84.0 L
221.25 82.75 L
228.812 82.75 232.239 87.499 232.239 91.689 C
232.239 91.689 L
232.239 94.386 230.671 97.25 227.5 97.25 C
227.5 96.0 L
227.5 97.25 L
224.096 97.25 222.577 93.989 222.577 91.173 C
222.577 91.173 L
222.577 87.305 225.238 82.75 231.25 82.75 C
231.25 84.0 L
231.25 82.75 L
237.45 82.75 240.475 86.149 241.224 89.745 C
241.479 90.969 L
239.031 91.479 L
238.776 90.255 L
238.276 87.851 236.3 85.25 231.25 85.25 C
231.25 85.25 L
226.913 85.25 225.077 88.371 225.077 91.173 C
225.077 91.173 L
225.077 93.481 226.212 94.75 227.5 94.75 C
227.5 94.75 L
228.704 94.75 229.739 93.676 229.739 91.689 C
229.739 91.689 L
229.739 88.996 227.55 85.25 221.25 85.25 C
221.25 85.25 L
214.95 85.25 212.761 88.996 212.761 91.689 C
212.761 91.689 L
212.761 93.676 213.797 94.75 215.0 94.75 C
215.0 94.75 L
216.204 94.75 217.239 93.676 217.239 91.689 C
217.239 91.689 L
217.239 88.996 215.05 85.25 208.75 85.25 C
208.75 85.25 L
202.45 85.25 200.261 88.996 200.261 91.689 C
200.261 91.689 L
200.261 93.676 201.297 94.75 202.5 94.75 C
202.5 94.75 L
203.788 94.75 204.923 93.481 204.923 91.173 C
204.923 91.173 L
204.923 88.371 203.087 85.25 198.75 85.25 C
198.75 85.25 L
193.7 85.25 191.725 87.851 191.224 90.255 C
190.969 91.479 L
188.521 90.969 L
P
G
WC
WF
R N
N
149.295 48.968 M
149.295 48.968 L
152.255 46.947 156.654 46.401 160.727 50.473 C
159.843 51.357 L
160.727 50.473 L
164.828 54.575 163.429 59.575 160.734 62.27 C
160.734 62.27 L
158.729 64.275 155.307 65.56 152.873 63.127 C
153.757 62.243 L
152.873 63.127 L
150.595 60.848 151.579 57.663 153.504 55.737 C
153.504 55.737 L
156.42 52.821 162.045 51.792 167.127 56.873 C
167.127 56.873 L
167.127 56.873 L
172.208 61.955 171.179 67.58 168.263 70.496 C
168.263 70.496 L
166.337 72.421 163.152 73.405 160.873 71.127 C
161.757 70.243 L
160.873 71.127 L
158.595 68.848 159.579 65.663 161.504 63.737 C
161.504 63.737 L
164.42 60.821 170.045 59.792 175.127 64.873 C
175.127 64.873 L
175.127 64.873 L
180.208 69.955 179.179 75.58 176.263 78.496 C
176.263 78.496 L
174.337 80.421 171.152 81.405 168.873 79.127 C
168.873 79.127 L
168.873 79.127 L
166.595 76.848 167.579 73.663 169.504 71.737 C
169.504 71.737 L
172.42 68.821 178.045 67.792 183.127 72.873 C
183.127 72.873 L
183.127 72.873 L
188.208 77.955 187.179 83.58 184.263 86.496 C
184.263 86.496 L
182.337 88.421 179.152 89.405 176.873 87.127 C
177.757 86.243 L
176.873 87.127 L
174.44 84.693 175.725 81.271 177.73 79.266 C
177.73 79.266 L
180.425 76.571 185.425 75.172 189.527 79.273 C
188.643 80.157 L
189.527 79.273 L
193.599 83.346 193.053 87.745 191.032 90.705 C
190.328 91.737 L
188.263 90.328 L
188.968 89.295 L
190.389 87.213 190.886 84.169 187.759 81.041 C
187.759 81.041 L
187.759 81.041 L
184.887 78.17 181.49 79.042 179.497 81.034 C
179.497 81.034 L
177.829 82.702 177.72 84.437 178.641 85.359 C
178.641 85.359 L
178.641 85.359 L
179.505 86.222 181.04 86.183 182.495 84.728 C
182.495 84.728 L
184.417 82.806 185.482 78.764 181.359 74.641 C
182.243 73.757 L
181.359 74.641 L
177.236 70.518 173.194 71.583 171.272 73.505 C
171.272 73.505 L
169.817 74.96 169.778 76.495 170.641 77.359 C
169.757 78.243 L
170.641 77.359 L
171.505 78.222 173.04 78.183 174.495 76.728 C
174.495 76.728 L
176.417 74.806 177.482 70.764 173.359 66.641 C
174.243 65.757 L
173.359 66.641 L
169.236 62.518 165.194 63.583 163.272 65.505 C
163.272 65.505 L
161.817 66.96 161.778 68.495 162.641 69.359 C
162.641 69.359 L
162.641 69.359 L
163.505 70.222 165.04 70.183 166.495 68.728 C
166.495 68.728 L
168.417 66.806 169.482 62.764 165.359 58.641 C
166.243 57.757 L
165.359 58.641 L
161.236 54.518 157.194 55.583 155.272 57.505 C
155.272 57.505 L
153.817 58.96 153.778 60.495 154.641 61.359 C
154.641 61.359 L
154.641 61.359 L
155.563 62.28 157.298 62.171 158.966 60.503 C
158.966 60.503 L
160.958 58.51 161.83 55.113 158.959 52.241 C
158.959 52.241 L
158.959 52.241 L
155.831 49.114 152.787 49.611 150.705 51.032 C
149.672 51.737 L
148.263 49.672 L
P
G
WC
WF
R N
N
191.032 89.295 M
191.032 89.295 L
193.053 92.255 193.599 96.654 189.527 100.727 C
188.643 99.843 L
189.527 100.727 L
185.425 104.828 180.425 103.429 177.73 100.734 C
177.73 100.734 L
175.725 98.729 174.44 95.307 176.873 92.873 C
177.757 93.757 L
176.873 92.873 L
179.152 90.595 182.337 91.579 184.263 93.504 C
184.263 93.504 L
187.179 96.42 188.208 102.045 183.127 107.127 C
182.243 106.243 L
183.127 107.127 L
178.045 112.208 172.42 111.179 169.504 108.263 C
169.504 108.263 L
167.579 106.337 166.595 103.152 168.873 100.873 C
168.873 100.873 L
168.873 100.873 L
171.152 98.595 174.337 99.579 176.263 101.504 C
176.263 101.504 L
179.179 104.42 180.208 110.045 175.127 115.127 C
175.127 115.127 L
175.127 115.127 L
170.045 120.208 164.42 119.179 161.504 116.263 C
161.504 116.263 L
159.579 114.337 158.595 111.152 160.873 108.873 C
160.873 108.873 L
160.873 108.873 L
163.152 106.595 166.337 107.579 168.263 109.504 C
168.263 109.504 L
171.179 112.42 172.208 118.045 167.127 123.127 C
166.243 122.243 L
167.127 123.127 L
162.045 128.208 156.42 127.179 153.504 124.263 C
153.504 124.263 L
151.579 122.337 150.595 119.152 152.873 116.873 C
152.873 116.873 L
152.873 116.873 L
155.307 114.44 158.729 115.725 160.734 117.73 C
160.734 117.73 L
163.429 120.425 164.828 125.425 160.727 129.527 C
159.843 128.643 L
160.727 129.527 L
156.654 133.599 152.255 133.053 149.295 131.032 C
148.263 130.328 L
149.672 128.263 L
150.705 128.968 L
152.787 130.389 155.831 130.886 158.959 127.759 C
158.959 127.759 L
158.959 127.759 L
161.83 124.887 160.958 121.49 158.966 119.497 C
158.966 119.497 L
157.298 117.829 155.563 117.72 154.641 118.641 C
153.757 117.757 L
154.641 118.641 L
153.778 119.505 153.817 121.04 155.272 122.495 C
155.272 122.495 L
157.194 124.417 161.236 125.482 165.359 121.359 C
165.359 121.359 L
165.359 121.359 L
169.482 117.236 168.417 113.194 166.495 111.272 C
166.495 111.272 L
165.04 109.817 163.505 109.778 162.641 110.641 C
161.757 109.757 L
162.641 110.641 L
161.778 111.505 161.817 113.04 163.272 114.495 C
163.272 114.495 L
165.194 116.417 169.236 117.482 173.359 113.359 C
174.243 114.243 L
173.359 113.359 L
177.482 109.236 176.417 105.194 174.495 103.272 C
174.495 103.272 L
173.04 101.817 171.505 101.778 170.641 102.641 C
169.757 101.757 L
170.641 102.641 L
169.778 103.505 169.817 105.04 171.272 106.495 C
171.272 106.495 L
173.194 108.417 177.236 109.482 181.359 105.359 C
181.359 105.359 L
181.359 105.359 L
185.482 101.236 184.417 97.194 182.495 95.272 C
182.495 95.272 L
181.04 93.817 179.505 93.778 178.641 94.641 C
178.641 94.641 L
178.641 94.641 L
177.72 95.563 177.829 97.298 179.497 98.966 C
179.497 98.966 L
181.49 100.958 184.887 101.83 187.759 98.959 C
187.759 98.959 L
187.759 98.959 L
190.886 95.831 190.389 92.787 188.968 90.705 C
188.263 89.672 L
190.328 88.263 L
P
G
WC
WF
R N
pgSave restore
showpage
%%EOF
