%!PS-Adobe-3.0 EPSF-3.0
%%BoundingBox: 260 588 364 672
%%Creator: mschulze with JaxoDraw-2.1-0
%%Title: 
%%CreationDate: 9/10/2019
%%BeginProlog
/imStr 0 def /imageSrc {currentfile /ASCII85Decode filter /RunLengthDecode filter  imStr readstring pop } def
/BD {bind def} bind def
/D {def} BD
/C {curveto} BD
/L {lineto} BD
/M {moveto} BD
/R {grestore} BD
/G {gsave} BD
/N {newpath} BD
/P {closepath} BD
/EC {eoclip} BD
/WC {clip} BD
/EF {eofill} BD
/WF {fill} BD
/SG {setgray} BD
/SC {setrgbcolor} BD
/ISOF {
     dup findfont dup length 1 add dict begin {
             1 index /FID eq {pop pop} {D} ifelse
     } forall /Encoding ISOLatin1Encoding D
     currentdict end definefont
} BD
/NZ {dup 1 lt {pop 1} if} BD
/S {
     moveto 1 index stringwidth pop NZ sub
     1 index length 1 sub NZ div 0
     3 2 roll ashow newpath} BD
/FL [
    /AvantGarde-Book ISOF
    /AvantGarde-BookOblique ISOF
    /AvantGarde-Demi ISOF
    /AvantGarde-DemiOblique ISOF
    /Bookman-Demi ISOF
    /Bookman-DemiItalic ISOF
    /Bookman-Light ISOF
    /Bookman-LightItalic ISOF
    /Courier ISOF
    /Courier-Bold ISOF
    /Courier-BoldOblique ISOF
    /Courier-Oblique ISOF
    /Helvetica ISOF
    /Helvetica-Bold ISOF
    /Helvetica-BoldOblique ISOF
    /Helvetica-Narrow ISOF
    /Helvetica-Narrow-Bold ISOF
    /Helvetica-Narrow-BoldOblique ISOF
    /Helvetica-Narrow-Oblique ISOF
    /Helvetica-Oblique ISOF
    /NewCenturySchlbk-Bold ISOF
    /NewCenturySchlbk-BoldItalic ISOF
    /NewCenturySchlbk-Italic ISOF
    /NewCenturySchlbk-Roman ISOF
    /Palatino-Bold ISOF
    /Palatino-BoldItalic ISOF
    /Palatino-Italic ISOF
    /Palatino-Roman ISOF
    /Symbol findfont
    /Times-Bold ISOF
    /Times-BoldItalic ISOF
    /Times-Italic ISOF
    /Times-Roman ISOF
    /ZapfDingbats findfont
    /ZapfChancery-MediumItalic ISOF
] D
/F {
     FL exch get exch scalefont
     [1 0 0 -1 0 0] makefont setfont} BD
%%EndProlog
%%BeginSetup
<< /PageSize [612.0 792.0] /DeferredMediaSelection true /ImagingBBox null /ManualFeed false /NumCopies 1 >> pop 
%%EndSetup
%%Page: 1 1
/pgSave save def
792.0 0 exch translate 1 -1 scale[72 300.0 div 0 0 72 300.0 div 0 0]concat
G
[4.1666665 0.0 0.0 4.1666665 300.0 300.0] concat
N
0.0 0.0 M
468.0 0.0 L
468.0 648.0 L
0.0 648.0 L
0.0 0.0 L
P
WC
N
240.517 58.862 M
240.517 58.862 L
241.941 59.51 243.23 60.154 243.826 60.943 C
243.826 60.943 L
244.228 61.475 244.411 62.189 244.078 62.923 C
244.078 62.923 L
244.006 63.08 243.919 63.219 243.826 63.342 C
243.826 63.342 L
243.23 64.131 241.941 64.776 240.517 65.424 C
240.0 64.286 L
240.517 65.424 L
238.898 66.16 238.301 66.56 238.169 66.735 C
238.169 66.735 L
238.206 66.686 238.316 66.433 238.198 66.174 C
238.198 66.174 L
238.182 66.138 238.169 66.121 238.169 66.122 C
238.169 66.122 L
238.301 66.297 238.898 66.697 240.517 67.434 C
240.517 67.434 L
240.517 67.434 L
241.941 68.081 243.23 68.726 243.826 69.515 C
243.826 69.515 L
244.228 70.046 244.411 70.761 244.078 71.494 C
244.078 71.494 L
244.006 71.651 243.919 71.791 243.826 71.914 C
243.826 71.914 L
243.23 72.703 241.941 73.348 240.517 73.995 C
240.0 72.857 L
240.517 73.995 L
238.898 74.732 238.301 75.132 238.169 75.307 C
238.169 75.307 L
238.206 75.257 238.316 75.005 238.198 74.745 C
238.198 74.745 L
238.182 74.71 238.169 74.693 238.169 74.693 C
238.169 74.693 L
238.301 74.868 238.898 75.268 240.517 76.005 C
240.517 76.005 L
240.517 76.005 L
241.941 76.652 243.23 77.297 243.826 78.086 C
243.826 78.086 L
244.228 78.618 244.411 79.332 244.078 80.066 C
244.078 80.066 L
244.006 80.223 243.919 80.362 243.826 80.485 C
243.826 80.485 L
243.23 81.274 241.941 81.919 240.517 82.566 C
240.517 82.566 L
240.517 82.566 L
238.898 83.303 238.301 83.703 238.169 83.878 C
238.169 83.878 L
238.206 83.829 238.316 83.576 238.198 83.317 C
238.198 83.317 L
238.182 83.281 238.169 83.264 238.169 83.265 C
238.169 83.265 L
238.301 83.44 238.898 83.84 240.517 84.576 C
240.517 84.576 L
240.517 84.576 L
241.941 85.224 243.23 85.869 243.826 86.658 C
243.826 86.658 L
244.228 87.189 244.411 87.904 244.078 88.637 C
244.078 88.637 L
244.006 88.794 243.919 88.934 243.826 89.057 C
243.826 89.057 L
243.23 89.846 241.941 90.49 240.517 91.138 C
240.0 90.0 L
240.517 91.138 L
238.898 91.874 238.301 92.275 238.169 92.45 C
238.169 92.45 L
238.206 92.4 238.316 92.148 238.198 91.888 C
238.198 91.888 L
238.182 91.853 238.169 91.835 238.169 91.836 C
238.169 91.836 L
238.301 92.011 238.898 92.411 240.517 93.148 C
240.0 94.286 L
240.517 93.148 L
241.941 93.795 243.23 94.44 243.826 95.229 C
243.826 95.229 L
244.228 95.761 244.411 96.475 244.078 97.209 C
244.078 97.209 L
244.006 97.366 243.919 97.505 243.826 97.628 C
243.826 97.628 L
243.23 98.417 241.941 99.062 240.517 99.709 C
240.0 98.571 L
240.517 99.709 L
238.898 100.446 238.301 100.846 238.169 101.021 C
238.169 101.021 L
238.206 100.972 238.316 100.719 238.198 100.46 C
238.198 100.46 L
238.182 100.424 238.169 100.407 238.169 100.408 C
238.169 100.408 L
238.301 100.582 238.898 100.983 240.517 101.719 C
240.0 102.857 L
240.517 101.719 L
241.941 102.367 243.23 103.011 243.826 103.8 C
243.826 103.8 L
244.228 104.332 244.411 105.047 244.078 105.78 C
244.078 105.78 L
244.006 105.937 243.919 106.077 243.826 106.2 C
243.826 106.2 L
243.23 106.989 241.941 107.633 240.517 108.281 C
240.0 107.143 L
240.517 108.281 L
238.898 109.017 238.301 109.418 238.169 109.592 C
238.169 109.592 L
238.206 109.543 238.316 109.291 238.198 109.031 C
238.198 109.031 L
238.182 108.996 238.169 108.978 238.169 108.979 C
238.169 108.979 L
238.301 109.154 238.898 109.554 240.517 110.291 C
240.0 111.429 L
240.517 110.291 L
241.941 110.938 243.23 111.583 243.826 112.372 C
243.826 112.372 L
244.228 112.904 244.411 113.618 244.078 114.352 C
244.078 114.352 L
244.006 114.509 243.919 114.648 243.826 114.771 C
243.826 114.771 L
243.23 115.56 241.941 116.205 240.517 116.852 C
240.0 115.714 L
240.517 116.852 L
238.898 117.589 238.301 117.989 238.169 118.164 C
238.169 118.164 L
238.206 118.114 238.316 117.862 238.198 117.602 C
238.198 117.602 L
238.182 117.567 238.169 117.55 238.169 117.55 C
238.169 117.55 L
238.301 117.725 238.898 118.126 240.517 118.862 C
241.655 119.38 L
240.62 121.655 L
239.483 121.138 L
238.059 120.49 236.77 119.846 236.174 119.057 C
236.174 119.057 L
236.081 118.934 235.994 118.794 235.922 118.637 C
235.922 118.637 L
235.589 117.904 235.772 117.189 236.174 116.658 C
236.174 116.658 L
236.77 115.869 238.059 115.224 239.483 114.576 C
239.483 114.576 L
239.483 114.576 L
241.102 113.84 241.699 113.44 241.831 113.265 C
241.831 113.265 L
241.831 113.264 241.818 113.281 241.802 113.317 C
241.802 113.317 L
241.684 113.576 241.794 113.829 241.831 113.878 C
241.831 113.878 L
241.699 113.703 241.102 113.303 239.483 112.566 C
239.483 112.566 L
239.483 112.566 L
238.059 111.919 236.77 111.274 236.174 110.485 C
236.174 110.485 L
236.081 110.362 235.994 110.223 235.922 110.066 C
235.922 110.066 L
235.589 109.332 235.772 108.618 236.174 108.086 C
236.174 108.086 L
236.77 107.297 238.059 106.652 239.483 106.005 C
239.483 106.005 L
239.483 106.005 L
241.102 105.268 241.699 104.868 241.831 104.693 C
241.831 104.693 L
241.831 104.693 241.818 104.71 241.802 104.745 C
241.802 104.745 L
241.684 105.005 241.794 105.257 241.831 105.307 C
241.831 105.307 L
241.699 105.132 241.102 104.732 239.483 103.995 C
239.483 103.995 L
238.059 103.348 236.77 102.703 236.174 101.914 C
236.174 101.914 L
236.081 101.791 235.994 101.651 235.922 101.494 C
235.922 101.494 L
235.589 100.761 235.772 100.046 236.174 99.515 C
236.174 99.515 L
236.77 98.726 238.059 98.081 239.483 97.434 C
239.483 97.434 L
241.102 96.697 241.699 96.297 241.831 96.122 C
241.831 96.122 L
241.831 96.121 241.818 96.138 241.802 96.174 C
241.802 96.174 L
241.684 96.433 241.794 96.686 241.831 96.735 C
241.831 96.735 L
241.699 96.56 241.102 96.16 239.483 95.424 C
239.483 95.424 L
238.059 94.776 236.77 94.131 236.174 93.342 C
236.174 93.342 L
236.081 93.219 235.994 93.08 235.922 92.923 C
235.922 92.923 L
235.589 92.189 235.772 91.475 236.174 90.943 C
236.174 90.943 L
236.77 90.154 238.059 89.51 239.483 88.862 C
239.483 88.862 L
241.102 88.126 241.699 87.725 241.831 87.55 C
241.831 87.55 L
241.831 87.55 241.818 87.567 241.802 87.602 C
241.802 87.602 L
241.684 87.862 241.794 88.114 241.831 88.164 C
241.831 88.164 L
241.699 87.989 241.102 87.589 239.483 86.852 C
240.0 85.714 L
239.483 86.852 L
238.059 86.205 236.77 85.56 236.174 84.771 C
236.174 84.771 L
236.081 84.648 235.994 84.509 235.922 84.352 C
235.922 84.352 L
235.589 83.618 235.772 82.904 236.174 82.372 C
236.174 82.372 L
236.77 81.583 238.059 80.938 239.483 80.291 C
240.0 81.429 L
239.483 80.291 L
241.102 79.554 241.699 79.154 241.831 78.979 C
241.831 78.979 L
241.831 78.978 241.818 78.996 241.802 79.031 C
241.802 79.031 L
241.684 79.291 241.794 79.543 241.831 79.592 C
241.831 79.592 L
241.699 79.418 241.102 79.017 239.483 78.281 C
240.0 77.143 L
239.483 78.281 L
238.059 77.633 236.77 76.989 236.174 76.2 C
236.174 76.2 L
236.081 76.077 235.994 75.937 235.922 75.78 C
235.922 75.78 L
235.589 75.047 235.772 74.332 236.174 73.8 C
236.174 73.8 L
236.77 73.011 238.059 72.367 239.483 71.719 C
239.483 71.719 L
239.483 71.719 L
241.102 70.983 241.699 70.582 241.831 70.408 C
241.831 70.408 L
241.831 70.407 241.818 70.424 241.802 70.46 C
241.802 70.46 L
241.684 70.719 241.794 70.972 241.831 71.021 C
241.831 71.021 L
241.699 70.846 241.102 70.446 239.483 69.709 C
240.0 68.571 L
239.483 69.709 L
238.059 69.062 236.77 68.417 236.174 67.628 C
236.174 67.628 L
236.081 67.505 235.994 67.366 235.922 67.209 C
235.922 67.209 L
235.589 66.475 235.772 65.761 236.174 65.229 C
236.174 65.229 L
236.77 64.44 238.059 63.795 239.483 63.148 C
239.483 63.148 L
239.483 63.148 L
241.102 62.411 241.699 62.011 241.831 61.836 C
241.831 61.836 L
241.831 61.835 241.818 61.853 241.802 61.888 C
241.802 61.888 L
241.684 62.148 241.794 62.4 241.831 62.45 C
241.831 62.45 L
241.699 62.275 241.102 61.874 239.483 61.138 C
238.345 60.62 L
239.38 58.345 L
P
G
WC
WF
R N
N
190.0 118.75 M
190.0 118.75 L
240.0 118.75 L
241.25 118.75 L
241.25 121.25 L
240.0 121.25 L
190.0 121.25 L
188.75 121.25 L
188.75 118.75 L
P
G
WC
WF
R N
N
219.5 120.0 M
210.5 123.6 L
212.3 120.0 L
210.5 116.4 L
P
G
WC
WF
R N
N
219.686 120.464 M
219.686 120.464 L
210.686 124.064 L
209.465 124.553 L
210.053 123.376 L
211.853 119.776 L
212.3 120.0 L
211.853 120.224 L
210.053 116.624 L
209.465 115.447 L
210.686 115.936 L
219.686 119.536 L
220.846 120.0 L
219.686 120.464 L
219.314 119.536 M
219.5 120.0 L
219.314 120.464 L
210.314 116.864 L
210.5 116.4 L
210.947 116.176 L
212.747 119.776 L
212.859 120.0 L
212.747 120.224 L
210.947 123.824 L
210.5 123.6 L
210.314 123.136 L
219.314 119.536 L
P
G
WC
WF
R N
N
240.0 61.25 M
240.0 61.25 L
190.0 61.25 L
188.75 61.25 L
188.75 58.75 L
190.0 58.75 L
240.0 58.75 L
241.25 58.75 L
241.25 61.25 L
P
G
WC
WF
R N
N
210.5 60.0 M
219.5 56.4 L
217.7 60.0 L
219.5 63.6 L
P
G
WC
WF
R N
N
210.314 59.536 M
210.314 59.536 L
219.314 55.936 L
220.535 55.447 L
219.947 56.624 L
218.147 60.224 L
217.7 60.0 L
218.147 59.776 L
219.947 63.376 L
220.535 64.553 L
219.314 64.064 L
210.314 60.464 L
209.154 60.0 L
210.314 59.536 L
210.686 60.464 M
210.5 60.0 L
210.686 59.536 L
219.686 63.136 L
219.5 63.6 L
219.053 63.824 L
217.253 60.224 L
217.141 60.0 L
217.253 59.776 L
219.053 56.176 L
219.5 56.4 L
219.686 56.864 L
210.686 60.464 L
P
G
WC
WF
R N
N
291.242 99.861 M
291.242 99.861 L
291.415 101.399 291.522 102.818 291.168 103.721 C
291.168 103.721 L
290.931 104.325 290.426 104.868 289.616 104.959 C
289.616 104.959 L
289.42 104.981 289.234 104.972 289.064 104.948 C
289.064 104.948 L
288.104 104.812 286.922 104.02 285.667 103.113 C
286.4 102.1 L
285.667 103.113 L
284.242 102.081 283.602 101.758 283.385 101.727 C
283.385 101.727 L
283.44 101.735 283.735 101.715 283.92 101.459 C
283.92 101.459 L
283.95 101.418 283.96 101.391 283.96 101.392 C
283.96 101.392 L
283.88 101.596 283.846 102.312 284.042 104.061 C
282.8 104.2 L
284.042 104.061 L
284.215 105.599 284.322 107.018 283.968 107.921 C
283.968 107.921 L
283.731 108.525 283.226 109.068 282.416 109.159 C
282.416 109.159 L
282.22 109.181 282.034 109.172 281.864 109.148 C
281.864 109.148 L
280.904 109.012 279.722 108.22 278.467 107.313 C
279.2 106.3 L
278.467 107.313 L
277.042 106.281 276.402 105.958 276.185 105.927 C
276.185 105.927 L
276.24 105.935 276.535 105.915 276.72 105.659 C
276.72 105.659 L
276.75 105.618 276.76 105.591 276.76 105.592 C
276.76 105.592 L
276.68 105.796 276.646 106.512 276.842 108.261 C
276.842 108.261 L
276.842 108.261 L
277.015 109.799 277.122 111.218 276.768 112.121 C
276.768 112.121 L
276.531 112.725 276.026 113.268 275.216 113.359 C
275.216 113.359 L
275.02 113.381 274.834 113.372 274.664 113.348 C
274.664 113.348 L
273.704 113.212 272.522 112.42 271.267 111.513 C
272.0 110.5 L
271.267 111.513 L
269.842 110.481 269.202 110.158 268.985 110.127 C
268.985 110.127 L
269.04 110.135 269.335 110.115 269.52 109.859 C
269.52 109.859 L
269.55 109.818 269.56 109.791 269.56 109.792 C
269.56 109.792 L
269.48 109.996 269.446 110.712 269.642 112.461 C
268.4 112.6 L
269.642 112.461 L
269.815 113.999 269.922 115.418 269.568 116.321 C
269.568 116.321 L
269.331 116.925 268.826 117.468 268.016 117.559 C
268.016 117.559 L
267.82 117.581 267.634 117.572 267.464 117.548 C
267.464 117.548 L
266.504 117.412 265.322 116.62 264.067 115.713 C
264.067 115.713 L
264.067 115.713 L
262.642 114.681 262.002 114.358 261.785 114.327 C
261.785 114.327 L
261.84 114.335 262.135 114.315 262.32 114.059 C
262.32 114.059 L
262.35 114.018 262.36 113.991 262.36 113.992 C
262.36 113.992 L
262.28 114.196 262.246 114.912 262.442 116.661 C
262.442 116.661 L
262.442 116.661 L
262.615 118.199 262.722 119.618 262.368 120.521 C
262.368 120.521 L
262.131 121.125 261.626 121.668 260.816 121.759 C
260.816 121.759 L
260.62 121.781 260.434 121.772 260.264 121.748 C
260.264 121.748 L
259.304 121.612 258.122 120.82 256.867 119.913 C
257.6 118.9 L
256.867 119.913 L
255.442 118.881 254.802 118.558 254.585 118.527 C
254.585 118.527 L
254.64 118.535 254.935 118.515 255.12 118.259 C
255.12 118.259 L
255.15 118.218 255.16 118.191 255.16 118.192 C
255.16 118.192 L
255.08 118.396 255.046 119.112 255.242 120.861 C
255.382 122.103 L
252.897 122.382 L
252.758 121.139 L
252.585 119.601 252.478 118.182 252.832 117.279 C
252.832 117.279 L
252.895 117.12 252.979 116.953 253.094 116.794 C
253.094 116.794 L
253.572 116.133 254.294 115.961 254.936 116.052 C
254.936 116.052 L
255.896 116.188 257.078 116.98 258.333 117.887 C
258.333 117.887 L
258.333 117.887 L
259.758 118.919 260.398 119.242 260.615 119.273 C
260.615 119.273 L
260.616 119.273 260.588 119.269 260.537 119.274 C
260.537 119.274 L
260.223 119.31 260.061 119.556 260.04 119.608 C
260.04 119.608 L
260.12 119.404 260.154 118.688 259.958 116.939 C
261.2 116.8 L
259.958 116.939 L
259.785 115.401 259.678 113.982 260.032 113.079 C
260.032 113.079 L
260.095 112.92 260.179 112.753 260.294 112.594 C
260.294 112.594 L
260.772 111.933 261.494 111.761 262.136 111.852 C
262.136 111.852 L
263.096 111.988 264.278 112.78 265.533 113.687 C
264.8 114.7 L
265.533 113.687 L
266.958 114.719 267.598 115.042 267.815 115.073 C
267.815 115.073 L
267.816 115.073 267.788 115.069 267.737 115.074 C
267.737 115.074 L
267.423 115.11 267.261 115.356 267.24 115.408 C
267.24 115.408 L
267.32 115.204 267.354 114.488 267.158 112.739 C
267.158 112.739 L
267.158 112.739 L
266.985 111.201 266.878 109.782 267.232 108.879 C
267.232 108.879 L
267.295 108.72 267.379 108.553 267.494 108.394 C
267.494 108.394 L
267.972 107.733 268.694 107.561 269.336 107.652 C
269.336 107.652 L
270.296 107.788 271.478 108.58 272.733 109.487 C
272.733 109.487 L
274.158 110.519 274.798 110.842 275.015 110.873 C
275.015 110.873 L
275.016 110.873 274.988 110.869 274.937 110.874 C
274.937 110.874 L
274.623 110.91 274.461 111.156 274.44 111.208 C
274.44 111.208 L
274.52 111.004 274.554 110.288 274.358 108.539 C
275.6 108.4 L
274.358 108.539 L
274.185 107.001 274.078 105.582 274.432 104.679 C
274.432 104.679 L
274.495 104.52 274.579 104.353 274.694 104.194 C
274.694 104.194 L
275.172 103.533 275.894 103.361 276.536 103.452 C
276.536 103.452 L
277.496 103.588 278.678 104.38 279.933 105.287 C
279.933 105.287 L
279.933 105.287 L
281.358 106.319 281.998 106.642 282.215 106.673 C
282.215 106.673 L
282.216 106.673 282.188 106.669 282.137 106.674 C
282.137 106.674 L
281.823 106.71 281.661 106.956 281.64 107.008 C
281.64 107.008 L
281.72 106.804 281.754 106.088 281.558 104.339 C
281.558 104.339 L
281.558 104.339 L
281.385 102.801 281.278 101.382 281.632 100.479 C
281.632 100.479 L
281.695 100.32 281.779 100.153 281.894 99.994 C
281.894 99.994 L
282.372 99.333 283.094 99.161 283.736 99.252 C
283.736 99.252 L
284.696 99.388 285.878 100.18 287.133 101.087 C
287.133 101.087 L
287.133 101.087 L
288.558 102.119 289.198 102.442 289.415 102.473 C
289.415 102.473 L
289.416 102.473 289.388 102.469 289.337 102.474 C
289.337 102.474 L
289.023 102.51 288.861 102.756 288.841 102.808 C
288.841 102.808 L
288.92 102.604 288.954 101.888 288.758 100.139 C
288.618 98.897 L
291.103 98.618 L
P
G
WC
WF
R N
N
290.702 81.034 M
290.702 81.034 L
289.424 81.901 288.224 82.654 287.265 82.764 C
287.265 82.764 L
286.626 82.837 285.907 82.649 285.448 81.973 C
285.448 81.973 L
285.333 81.804 285.253 81.629 285.195 81.463 C
285.195 81.463 L
284.878 80.552 285.036 79.143 285.264 77.616 C
286.5 77.8 L
285.264 77.616 L
285.522 75.881 285.515 75.165 285.444 74.958 C
285.444 74.958 L
285.461 75.008 285.614 75.267 285.936 75.315 C
285.936 75.315 L
285.99 75.323 286.021 75.319 286.019 75.32 C
286.019 75.32 L
285.802 75.344 285.153 75.649 283.702 76.634 C
283.0 75.6 L
283.702 76.634 L
282.424 77.501 281.224 78.254 280.265 78.364 C
280.265 78.364 L
279.626 78.437 278.907 78.249 278.448 77.573 C
278.448 77.573 L
278.333 77.404 278.253 77.229 278.195 77.063 C
278.195 77.063 L
277.878 76.152 278.036 74.743 278.264 73.216 C
279.5 73.4 L
278.264 73.216 L
278.522 71.481 278.515 70.765 278.444 70.558 C
278.444 70.558 L
278.461 70.608 278.614 70.867 278.936 70.915 C
278.936 70.915 L
278.99 70.923 279.021 70.919 279.019 70.92 C
279.019 70.92 L
278.802 70.944 278.153 71.249 276.702 72.234 C
276.0 71.2 L
276.702 72.234 L
275.424 73.101 274.224 73.854 273.265 73.964 C
273.265 73.964 L
272.626 74.037 271.907 73.849 271.448 73.173 C
271.448 73.173 L
271.333 73.004 271.253 72.829 271.195 72.663 C
271.195 72.663 L
270.878 71.752 271.036 70.343 271.264 68.816 C
272.5 69.0 L
271.264 68.816 L
271.522 67.081 271.515 66.365 271.444 66.158 C
271.444 66.158 L
271.461 66.208 271.614 66.467 271.936 66.515 C
271.936 66.515 L
271.99 66.523 272.021 66.519 272.019 66.52 C
272.019 66.52 L
271.802 66.544 271.153 66.849 269.702 67.834 C
269.0 66.8 L
269.702 67.834 L
268.424 68.701 267.224 69.454 266.265 69.564 C
266.265 69.564 L
265.626 69.637 264.907 69.449 264.448 68.773 C
264.448 68.773 L
264.333 68.604 264.253 68.429 264.195 68.263 C
264.195 68.263 L
263.878 67.352 264.036 65.943 264.264 64.416 C
264.264 64.416 L
264.264 64.416 L
264.522 62.681 264.515 61.965 264.444 61.758 C
264.444 61.758 L
264.461 61.808 264.614 62.067 264.936 62.115 C
264.936 62.115 L
264.99 62.123 265.021 62.119 265.019 62.12 C
265.019 62.12 L
264.802 62.144 264.153 62.449 262.702 63.434 C
262.702 63.434 L
262.702 63.434 L
261.424 64.301 260.224 65.054 259.265 65.164 C
259.265 65.164 L
258.626 65.237 257.907 65.049 257.448 64.373 C
257.448 64.373 L
257.333 64.204 257.253 64.029 257.195 63.863 C
257.195 63.863 L
256.878 62.952 257.036 61.543 257.264 60.016 C
257.264 60.016 L
257.264 60.016 L
257.522 58.281 257.515 57.565 257.444 57.358 C
257.444 57.358 L
257.461 57.408 257.614 57.667 257.936 57.715 C
257.936 57.715 L
257.99 57.723 258.021 57.719 258.019 57.72 C
258.019 57.72 L
257.802 57.744 257.153 58.049 255.702 59.034 C
254.668 59.736 L
253.264 57.668 L
254.298 56.966 L
255.576 56.099 256.776 55.346 257.735 55.236 C
257.735 55.236 L
257.91 55.216 258.102 55.212 258.304 55.242 C
258.304 55.242 L
259.113 55.363 259.594 55.929 259.805 56.537 C
259.805 56.537 L
260.122 57.448 259.964 58.857 259.736 60.384 C
258.5 60.2 L
259.736 60.384 L
259.478 62.119 259.485 62.835 259.556 63.042 C
259.556 63.042 L
259.557 63.044 259.547 63.014 259.516 62.969 C
259.516 62.969 L
259.334 62.7 259.034 62.674 258.981 62.68 C
258.981 62.68 L
259.198 62.656 259.847 62.351 261.298 61.366 C
262.0 62.4 L
261.298 61.366 L
262.576 60.499 263.776 59.746 264.735 59.636 C
264.735 59.636 L
264.91 59.616 265.102 59.612 265.304 59.642 C
265.304 59.642 L
266.113 59.763 266.594 60.329 266.805 60.937 C
266.805 60.937 L
267.122 61.848 266.964 63.257 266.736 64.784 C
265.5 64.6 L
266.736 64.784 L
266.478 66.519 266.485 67.236 266.556 67.442 C
266.556 67.442 L
266.557 67.444 266.547 67.414 266.516 67.369 C
266.516 67.369 L
266.334 67.1 266.034 67.074 265.981 67.08 C
265.981 67.08 L
266.198 67.056 266.847 66.751 268.298 65.766 C
268.298 65.766 L
268.298 65.766 L
269.576 64.899 270.776 64.146 271.735 64.036 C
271.735 64.036 L
271.91 64.016 272.102 64.012 272.304 64.042 C
272.304 64.042 L
273.113 64.163 273.594 64.729 273.805 65.337 C
273.805 65.337 L
274.122 66.248 273.964 67.657 273.736 69.184 C
273.736 69.184 L
273.736 69.184 L
273.478 70.919 273.485 71.636 273.556 71.842 C
273.556 71.842 L
273.557 71.844 273.547 71.814 273.516 71.769 C
273.516 71.769 L
273.334 71.5 273.034 71.474 272.981 71.48 C
272.981 71.48 L
273.198 71.456 273.847 71.151 275.298 70.166 C
275.298 70.166 L
275.298 70.166 L
276.576 69.299 277.776 68.546 278.735 68.436 C
278.735 68.436 L
278.91 68.416 279.102 68.412 279.304 68.442 C
279.304 68.442 L
280.113 68.563 280.594 69.129 280.805 69.737 C
280.805 69.737 L
281.122 70.648 280.964 72.057 280.736 73.584 C
280.736 73.584 L
280.736 73.584 L
280.478 75.319 280.485 76.035 280.556 76.242 C
280.556 76.242 L
280.557 76.244 280.547 76.214 280.516 76.169 C
280.516 76.169 L
280.334 75.9 280.034 75.874 279.981 75.88 C
279.981 75.88 L
280.198 75.856 280.847 75.551 282.298 74.566 C
282.298 74.566 L
283.576 73.699 284.776 72.946 285.735 72.836 C
285.735 72.836 L
285.91 72.816 286.102 72.812 286.304 72.842 C
286.304 72.842 L
287.113 72.963 287.594 73.529 287.805 74.137 C
287.805 74.137 L
288.122 75.048 287.964 76.457 287.736 77.984 C
287.736 77.984 L
287.736 77.984 L
287.478 79.719 287.485 80.435 287.556 80.642 C
287.556 80.642 L
287.557 80.644 287.547 80.614 287.516 80.569 C
287.516 80.569 L
287.334 80.3 287.034 80.274 286.981 80.28 C
286.981 80.28 L
287.198 80.256 287.847 79.951 289.298 78.966 C
290.332 78.264 L
291.736 80.332 L
P
G
WC
WF
R N
N
290.245 51.226 M
290.245 51.226 L
240.245 61.226 L
239.019 61.471 L
238.529 59.019 L
239.755 58.774 L
289.755 48.774 L
290.981 48.529 L
291.471 50.981 L
P
G
WC
WF
R N
N
260.587 55.883 M
268.707 50.587 L
267.648 54.47 L
270.119 57.648 L
P
G
WC
WF
R N
N
260.314 55.464 M
260.314 55.464 L
268.433 50.169 L
269.535 49.45 L
269.189 50.719 L
268.13 54.602 L
267.648 54.47 L
268.042 54.164 L
270.513 57.341 L
271.321 58.379 L
270.028 58.139 L
260.496 56.374 L
259.267 56.147 L
260.314 55.464 L
260.861 56.301 M
260.587 55.883 L
260.678 55.391 L
270.21 57.156 L
270.119 57.648 L
269.724 57.955 L
267.253 54.777 L
267.099 54.58 L
267.165 54.339 L
268.224 50.456 L
268.707 50.587 L
268.98 51.006 L
260.861 56.301 L
P
G
WC
WF
R N
N
240.245 118.774 M
240.245 118.774 L
290.245 128.774 L
291.471 129.019 L
290.981 131.471 L
289.755 131.226 L
239.755 121.226 L
238.529 120.981 L
239.019 118.529 L
P
G
WC
WF
R N
N
269.413 125.883 M
259.881 127.648 L
262.352 124.47 L
261.293 120.587 L
P
G
WC
WF
R N
N
269.504 126.374 M
269.504 126.374 L
259.972 128.139 L
258.679 128.379 L
259.487 127.341 L
261.958 124.164 L
262.352 124.47 L
261.87 124.602 L
260.811 120.719 L
260.465 119.45 L
261.567 120.169 L
269.686 125.464 L
270.733 126.147 L
269.504 126.374 L
269.322 125.391 M
269.413 125.883 L
269.14 126.301 L
261.02 121.006 L
261.293 120.587 L
261.776 120.456 L
262.835 124.339 L
262.901 124.58 L
262.747 124.777 L
260.276 127.955 L
259.881 127.648 L
259.79 127.156 L
269.322 125.391 L
P
G
WC
WF
R N
pgSave restore
showpage
%%EOF
