%!PS-Adobe-3.0 EPSF-3.0
%%BoundingBox: 260 588 395 672
%%Creator: mschulze with JaxoDraw-2.1-0
%%Title: 
%%CreationDate: 9/10/2019
%%BeginProlog
/imStr 0 def /imageSrc {currentfile /ASCII85Decode filter /RunLengthDecode filter  imStr readstring pop } def
/BD {bind def} bind def
/D {def} BD
/C {curveto} BD
/L {lineto} BD
/M {moveto} BD
/R {grestore} BD
/G {gsave} BD
/N {newpath} BD
/P {closepath} BD
/EC {eoclip} BD
/WC {clip} BD
/EF {eofill} BD
/WF {fill} BD
/SG {setgray} BD
/SC {setrgbcolor} BD
/ISOF {
     dup findfont dup length 1 add dict begin {
             1 index /FID eq {pop pop} {D} ifelse
     } forall /Encoding ISOLatin1Encoding D
     currentdict end definefont
} BD
/NZ {dup 1 lt {pop 1} if} BD
/S {
     moveto 1 index stringwidth pop NZ sub
     1 index length 1 sub NZ div 0
     3 2 roll ashow newpath} BD
/FL [
    /AvantGarde-Book ISOF
    /AvantGarde-BookOblique ISOF
    /AvantGarde-Demi ISOF
    /AvantGarde-DemiOblique ISOF
    /Bookman-Demi ISOF
    /Bookman-DemiItalic ISOF
    /Bookman-Light ISOF
    /Bookman-LightItalic ISOF
    /Courier ISOF
    /Courier-Bold ISOF
    /Courier-BoldOblique ISOF
    /Courier-Oblique ISOF
    /Helvetica ISOF
    /Helvetica-Bold ISOF
    /Helvetica-BoldOblique ISOF
    /Helvetica-Narrow ISOF
    /Helvetica-Narrow-Bold ISOF
    /Helvetica-Narrow-BoldOblique ISOF
    /Helvetica-Narrow-Oblique ISOF
    /Helvetica-Oblique ISOF
    /NewCenturySchlbk-Bold ISOF
    /NewCenturySchlbk-BoldItalic ISOF
    /NewCenturySchlbk-Italic ISOF
    /NewCenturySchlbk-Roman ISOF
    /Palatino-Bold ISOF
    /Palatino-BoldItalic ISOF
    /Palatino-Italic ISOF
    /Palatino-Roman ISOF
    /Symbol findfont
    /Times-Bold ISOF
    /Times-BoldItalic ISOF
    /Times-Italic ISOF
    /Times-Roman ISOF
    /ZapfDingbats findfont
    /ZapfChancery-MediumItalic ISOF
] D
/F {
     FL exch get exch scalefont
     [1 0 0 -1 0 0] makefont setfont} BD
%%EndProlog
%%BeginSetup
<< /PageSize [612.0 792.0] /DeferredMediaSelection true /ImagingBBox null /ManualFeed false /NumCopies 1 >> pop 
%%EndSetup
%%Page: 1 1
/pgSave save def
792.0 0 exch translate 1 -1 scale[72 300.0 div 0 0 72 300.0 div 0 0]concat
G
[4.1666665 0.0 0.0 4.1666665 300.0 300.0] concat
N
0.0 0.0 M
468.0 0.0 L
468.0 648.0 L
0.0 648.0 L
0.0 0.0 L
P
WC
N
239.823 58.763 M
239.823 58.763 L
241.404 58.537 242.874 58.383 243.827 58.763 C
243.827 58.763 L
244.474 59.02 244.98 59.549 245.092 60.33 C
245.092 60.33 L
245.11 60.455 245.116 60.576 245.114 60.693 C
245.114 60.693 L
245.098 61.718 244.391 63.017 243.574 64.389 C
242.5 63.75 L
243.574 64.389 L
242.644 65.953 242.389 66.628 242.385 66.847 C
242.385 66.847 L
242.387 66.775 242.32 66.545 242.124 66.429 C
242.124 66.429 L
242.107 66.418 242.097 66.414 242.097 66.415 C
242.097 66.415 L
242.301 66.496 243.021 66.52 244.823 66.263 C
245.0 67.5 L
244.823 66.263 L
246.404 66.037 247.874 65.883 248.827 66.263 C
248.827 66.263 L
249.474 66.52 249.98 67.049 250.092 67.83 C
250.092 67.83 L
250.11 67.955 250.116 68.076 250.114 68.193 C
250.114 68.193 L
250.098 69.218 249.391 70.517 248.574 71.889 C
247.5 71.25 L
248.574 71.889 L
247.644 73.453 247.389 74.128 247.385 74.347 C
247.385 74.347 L
247.387 74.275 247.32 74.045 247.124 73.929 C
247.124 73.929 L
247.107 73.918 247.097 73.914 247.097 73.915 C
247.097 73.915 L
247.301 73.996 248.021 74.02 249.823 73.763 C
250.0 75.0 L
249.823 73.763 L
251.404 73.537 252.874 73.383 253.827 73.763 C
253.827 73.763 L
254.474 74.02 254.98 74.549 255.092 75.33 C
255.092 75.33 L
255.11 75.455 255.116 75.576 255.114 75.693 C
255.114 75.693 L
255.098 76.718 254.391 78.017 253.574 79.389 C
252.5 78.75 L
253.574 79.389 L
252.644 80.953 252.389 81.628 252.385 81.847 C
252.385 81.847 L
252.387 81.775 252.32 81.545 252.124 81.429 C
252.124 81.429 L
252.107 81.418 252.097 81.414 252.097 81.415 C
252.097 81.415 L
252.301 81.496 253.021 81.52 254.823 81.263 C
255.0 82.5 L
254.823 81.263 L
256.404 81.037 257.874 80.883 258.827 81.263 C
258.827 81.263 L
259.474 81.52 259.98 82.049 260.092 82.83 C
260.092 82.83 L
260.11 82.955 260.116 83.076 260.114 83.193 C
260.114 83.193 L
260.098 84.218 259.391 85.517 258.574 86.889 C
257.5 86.25 L
258.574 86.889 L
257.644 88.453 257.389 89.128 257.385 89.347 C
257.385 89.347 L
257.387 89.275 257.32 89.045 257.124 88.929 C
257.124 88.929 L
257.107 88.918 257.097 88.914 257.097 88.915 C
257.097 88.915 L
257.301 88.996 258.021 89.02 259.823 88.763 C
261.061 88.586 L
261.414 91.061 L
260.177 91.237 L
258.596 91.463 257.126 91.617 256.173 91.237 C
256.173 91.237 L
256.064 91.194 255.954 91.142 255.846 91.077 C
255.846 91.077 L
255.168 90.674 254.875 90.003 254.886 89.307 C
254.886 89.307 L
254.902 88.282 255.609 86.983 256.426 85.611 C
256.426 85.611 L
256.426 85.611 L
257.356 84.047 257.611 83.372 257.615 83.153 C
257.615 83.153 L
257.615 83.153 257.614 83.164 257.617 83.184 C
257.617 83.184 L
257.649 83.409 257.836 83.559 257.903 83.585 C
257.903 83.585 L
257.699 83.504 256.979 83.48 255.177 83.737 C
255.177 83.737 L
255.177 83.737 L
253.596 83.963 252.126 84.117 251.173 83.737 C
251.173 83.737 L
251.064 83.694 250.954 83.642 250.846 83.577 C
250.846 83.577 L
250.168 83.174 249.875 82.503 249.886 81.807 C
249.886 81.807 L
249.902 80.782 250.609 79.483 251.426 78.111 C
251.426 78.111 L
252.356 76.547 252.611 75.872 252.615 75.653 C
252.615 75.653 L
252.615 75.653 252.614 75.664 252.617 75.684 C
252.617 75.684 L
252.649 75.909 252.836 76.059 252.903 76.085 C
252.903 76.085 L
252.699 76.004 251.979 75.98 250.177 76.237 C
250.177 76.237 L
248.596 76.463 247.126 76.617 246.173 76.237 C
246.173 76.237 L
246.064 76.194 245.954 76.142 245.846 76.077 C
245.846 76.077 L
245.168 75.674 244.875 75.003 244.886 74.307 C
244.886 74.307 L
244.902 73.282 245.609 71.983 246.426 70.611 C
246.426 70.611 L
247.356 69.047 247.611 68.372 247.615 68.153 C
247.615 68.153 L
247.615 68.153 247.614 68.164 247.617 68.184 C
247.617 68.184 L
247.649 68.409 247.836 68.559 247.903 68.585 C
247.903 68.585 L
247.699 68.504 246.979 68.48 245.177 68.737 C
245.177 68.737 L
243.596 68.963 242.126 69.117 241.173 68.737 C
241.173 68.737 L
241.064 68.694 240.954 68.642 240.846 68.577 C
240.846 68.577 L
240.168 68.174 239.875 67.503 239.886 66.807 C
239.886 66.807 L
239.902 65.782 240.609 64.483 241.426 63.111 C
241.426 63.111 L
242.356 61.547 242.611 60.872 242.615 60.653 C
242.615 60.653 L
242.615 60.653 242.614 60.664 242.617 60.684 C
242.617 60.684 L
242.649 60.909 242.836 61.059 242.903 61.085 C
242.903 61.085 L
242.699 61.004 241.979 60.98 240.177 61.237 C
238.939 61.414 L
238.586 58.939 L
P
G
WC
WF
R N
N
238.926 120.639 M
238.926 120.639 L
238.109 119.267 237.402 117.968 237.386 116.943 C
237.386 116.943 L
237.375 116.247 237.668 115.576 238.346 115.173 C
238.346 115.173 L
238.454 115.108 238.564 115.056 238.673 115.013 C
238.673 115.013 L
239.626 114.633 241.096 114.787 242.677 115.013 C
242.5 116.25 L
242.677 115.013 L
244.479 115.27 245.199 115.246 245.403 115.165 C
245.403 115.165 L
245.336 115.191 245.149 115.341 245.117 115.566 C
245.117 115.566 L
245.114 115.586 245.115 115.597 245.115 115.597 C
245.115 115.597 L
245.111 115.378 244.856 114.703 243.926 113.139 C
245.0 112.5 L
243.926 113.139 L
243.109 111.767 242.402 110.468 242.386 109.443 C
242.386 109.443 L
242.375 108.747 242.668 108.076 243.346 107.673 C
243.346 107.673 L
243.454 107.608 243.564 107.556 243.673 107.513 C
243.673 107.513 L
244.626 107.133 246.096 107.287 247.677 107.513 C
247.5 108.75 L
247.677 107.513 L
249.479 107.77 250.199 107.746 250.403 107.665 C
250.403 107.665 L
250.336 107.691 250.149 107.841 250.117 108.066 C
250.117 108.066 L
250.114 108.086 250.115 108.097 250.115 108.097 C
250.115 108.097 L
250.111 107.878 249.856 107.203 248.926 105.639 C
250.0 105.0 L
248.926 105.639 L
248.109 104.267 247.402 102.968 247.386 101.943 C
247.386 101.943 L
247.375 101.247 247.668 100.576 248.346 100.173 C
248.346 100.173 L
248.454 100.108 248.564 100.056 248.673 100.013 C
248.673 100.013 L
249.626 99.633 251.096 99.787 252.677 100.013 C
252.677 100.013 L
252.677 100.013 L
254.479 100.27 255.199 100.246 255.403 100.165 C
255.403 100.165 L
255.336 100.191 255.149 100.341 255.117 100.566 C
255.117 100.566 L
255.114 100.586 255.115 100.597 255.115 100.597 C
255.115 100.597 L
255.111 100.378 254.856 99.703 253.926 98.139 C
253.926 98.139 L
253.926 98.139 L
253.109 96.767 252.402 95.468 252.386 94.443 C
252.386 94.443 L
252.375 93.747 252.668 93.076 253.346 92.673 C
253.346 92.673 L
253.454 92.608 253.564 92.556 253.673 92.513 C
253.673 92.513 L
254.626 92.133 256.096 92.287 257.677 92.513 C
257.677 92.513 L
257.677 92.513 L
259.479 92.77 260.199 92.746 260.403 92.665 C
260.403 92.665 L
260.336 92.691 260.149 92.841 260.117 93.066 C
260.117 93.066 L
260.114 93.086 260.115 93.097 260.115 93.097 C
260.115 93.097 L
260.111 92.878 259.856 92.203 258.926 90.639 C
258.287 89.565 L
260.435 88.287 L
261.074 89.361 L
261.891 90.733 262.598 92.032 262.614 93.057 C
262.614 93.057 L
262.616 93.174 262.61 93.295 262.592 93.42 C
262.592 93.42 L
262.48 94.201 261.974 94.73 261.327 94.987 C
261.327 94.987 L
260.374 95.367 258.904 95.213 257.323 94.987 C
257.5 93.75 L
257.323 94.987 L
255.521 94.73 254.801 94.754 254.597 94.835 C
254.597 94.835 L
254.597 94.836 254.607 94.832 254.624 94.821 C
254.624 94.821 L
254.82 94.705 254.887 94.475 254.885 94.403 C
254.885 94.403 L
254.889 94.622 255.144 95.297 256.074 96.861 C
255.0 97.5 L
256.074 96.861 L
256.891 98.233 257.598 99.532 257.614 100.557 C
257.614 100.557 L
257.616 100.674 257.61 100.795 257.592 100.92 C
257.592 100.92 L
257.48 101.701 256.974 102.23 256.327 102.487 C
256.327 102.487 L
255.374 102.867 253.904 102.713 252.323 102.487 C
252.5 101.25 L
252.323 102.487 L
250.521 102.23 249.801 102.254 249.597 102.335 C
249.597 102.335 L
249.597 102.336 249.607 102.332 249.624 102.321 C
249.624 102.321 L
249.82 102.205 249.887 101.975 249.885 101.903 C
249.885 101.903 L
249.889 102.122 250.144 102.797 251.074 104.361 C
251.074 104.361 L
251.891 105.733 252.598 107.032 252.614 108.057 C
252.614 108.057 L
252.616 108.174 252.61 108.295 252.592 108.42 C
252.592 108.42 L
252.48 109.201 251.974 109.73 251.327 109.987 C
251.327 109.987 L
250.374 110.367 248.904 110.213 247.323 109.987 C
247.323 109.987 L
245.521 109.73 244.801 109.754 244.597 109.835 C
244.597 109.835 L
244.597 109.836 244.607 109.832 244.624 109.821 C
244.624 109.821 L
244.82 109.705 244.887 109.475 244.885 109.403 C
244.885 109.403 L
244.889 109.622 245.144 110.297 246.074 111.861 C
246.074 111.861 L
246.891 113.233 247.598 114.532 247.614 115.557 C
247.614 115.557 L
247.616 115.674 247.61 115.795 247.592 115.92 C
247.592 115.92 L
247.48 116.701 246.974 117.23 246.327 117.487 C
246.327 117.487 L
245.374 117.867 243.904 117.713 242.323 117.487 C
242.323 117.487 L
240.521 117.23 239.801 117.254 239.597 117.335 C
239.597 117.335 L
239.597 117.336 239.607 117.332 239.624 117.321 C
239.624 117.321 L
239.82 117.205 239.887 116.975 239.885 116.903 C
239.885 116.903 L
239.889 117.122 240.144 117.797 241.074 119.361 C
241.713 120.435 L
239.565 121.713 L
P
G
WC
WF
R N
N
190.0 118.75 M
190.0 118.75 L
240.0 118.75 L
241.25 118.75 L
241.25 121.25 L
240.0 121.25 L
190.0 121.25 L
188.75 121.25 L
188.75 118.75 L
P
G
WC
WF
R N
N
219.5 120.0 M
210.5 123.6 L
212.3 120.0 L
210.5 116.4 L
P
G
WC
WF
R N
N
219.686 120.464 M
219.686 120.464 L
210.686 124.064 L
209.465 124.553 L
210.053 123.376 L
211.853 119.776 L
212.3 120.0 L
211.853 120.224 L
210.053 116.624 L
209.465 115.447 L
210.686 115.936 L
219.686 119.536 L
220.846 120.0 L
219.686 120.464 L
219.314 119.536 M
219.5 120.0 L
219.314 120.464 L
210.314 116.864 L
210.5 116.4 L
210.947 116.176 L
212.747 119.776 L
212.859 120.0 L
212.747 120.224 L
210.947 123.824 L
210.5 123.6 L
210.314 123.136 L
219.314 119.536 L
P
G
WC
WF
R N
N
240.0 61.25 M
240.0 61.25 L
190.0 61.25 L
188.75 61.25 L
188.75 58.75 L
190.0 58.75 L
240.0 58.75 L
241.25 58.75 L
241.25 61.25 L
P
G
WC
WF
R N
N
210.5 60.0 M
219.5 56.4 L
217.7 60.0 L
219.5 63.6 L
P
G
WC
WF
R N
N
210.314 59.536 M
210.314 59.536 L
219.314 55.936 L
220.535 55.447 L
219.947 56.624 L
218.147 60.224 L
217.7 60.0 L
218.147 59.776 L
219.947 63.376 L
220.535 64.553 L
219.314 64.064 L
210.314 60.464 L
209.154 60.0 L
210.314 59.536 L
210.686 60.464 M
210.5 60.0 L
210.686 59.536 L
219.686 63.136 L
219.5 63.6 L
219.053 63.824 L
217.253 60.224 L
217.141 60.0 L
217.253 59.776 L
219.053 56.176 L
219.5 56.4 L
219.686 56.864 L
210.686 60.464 L
P
G
WC
WF
R N
N
271.6 88.75 M
271.6 88.75 L
277.4 88.75 L
278.09 88.75 278.65 89.31 278.65 90.0 C
278.65 90.69 278.09 91.25 277.4 91.25 C
277.4 91.25 L
271.6 91.25 L
270.91 91.25 270.35 90.69 270.35 90.0 C
270.35 89.31 270.91 88.75 271.6 88.75 C
P
283.2 88.75 M
283.2 88.75 L
289.0 88.75 L
289.69 88.75 290.25 89.31 290.25 90.0 C
290.25 90.69 289.69 91.25 289.0 91.25 C
289.0 91.25 L
283.2 91.25 L
282.51 91.25 281.95 90.69 281.95 90.0 C
281.95 89.31 282.51 88.75 283.2 88.75 C
P
294.8 88.75 M
294.8 88.75 L
300.0 88.75 L
300.69 88.75 301.25 89.31 301.25 90.0 C
301.25 90.69 300.69 91.25 300.0 91.25 C
300.0 91.25 L
294.8 91.25 L
294.11 91.25 293.55 90.69 293.55 90.0 C
293.55 89.31 294.11 88.75 294.8 88.75 C
P
260.0 88.75 M
260.0 88.75 L
265.8 88.75 L
266.49 88.75 267.05 89.31 267.05 90.0 C
267.05 90.69 266.49 91.25 265.8 91.25 C
265.8 91.25 L
260.0 91.25 L
259.31 91.25 258.75 90.69 258.75 90.0 C
258.75 89.31 259.31 88.75 260.0 88.75 C
P
G
WC
WF
R N
N
321.186 69.605 M
321.186 69.605 L
321.701 71.151 322.124 72.608 321.89 73.644 C
321.89 73.644 L
321.731 74.347 321.274 74.915 320.538 75.16 C
320.538 75.16 L
320.462 75.185 320.386 75.206 320.311 75.223 C
320.311 75.223 L
319.275 75.457 317.818 75.034 316.272 74.519 C
316.272 74.519 L
316.272 74.519 L
314.504 73.93 313.787 73.834 313.574 73.882 C
313.574 73.882 L
313.65 73.865 313.824 73.75 313.879 73.585 C
313.879 73.585 L
313.881 73.578 313.882 73.573 313.882 73.573 C
313.882 73.573 L
313.834 73.787 313.93 74.504 314.519 76.272 C
314.519 76.272 L
314.519 76.272 L
315.035 77.818 315.457 79.275 315.223 80.311 C
315.223 80.311 L
315.064 81.014 314.607 81.582 313.872 81.826 C
313.872 81.826 L
313.795 81.852 313.719 81.873 313.644 81.89 C
313.644 81.89 L
312.608 82.124 311.151 81.701 309.605 81.186 C
310.0 80.0 L
309.605 81.186 L
307.838 80.597 307.121 80.5 306.907 80.549 C
306.907 80.549 L
306.984 80.531 307.157 80.416 307.212 80.252 C
307.212 80.252 L
307.215 80.244 307.216 80.24 307.216 80.24 C
307.216 80.24 L
307.167 80.454 307.264 81.171 307.853 82.938 C
306.667 83.333 L
307.853 82.938 L
308.368 84.485 308.791 85.941 308.556 86.977 C
308.556 86.977 L
308.398 87.68 307.94 88.248 307.205 88.493 C
307.205 88.493 L
307.129 88.519 307.053 88.539 306.977 88.556 C
306.977 88.556 L
305.941 88.791 304.485 88.368 302.938 87.853 C
303.333 86.667 L
302.938 87.853 L
301.171 87.264 300.454 87.167 300.24 87.215 C
300.24 87.215 L
300.317 87.198 300.491 87.083 300.545 86.919 C
300.545 86.919 L
300.548 86.911 300.549 86.907 300.549 86.907 C
300.549 86.907 L
300.501 87.121 300.597 87.838 301.186 89.605 C
301.581 90.791 L
299.209 91.581 L
298.814 90.395 L
298.299 88.849 297.876 87.392 298.11 86.356 C
298.11 86.356 L
298.127 86.281 298.148 86.205 298.174 86.128 C
298.174 86.128 L
298.418 85.393 298.986 84.936 299.689 84.777 C
299.689 84.777 L
300.725 84.543 302.182 84.966 303.728 85.481 C
303.728 85.481 L
305.496 86.07 306.213 86.166 306.427 86.118 C
306.427 86.118 L
306.427 86.118 306.422 86.119 306.415 86.121 C
306.415 86.121 L
306.25 86.176 306.135 86.35 306.118 86.427 C
306.118 86.427 L
306.166 86.213 306.07 85.496 305.481 83.728 C
305.481 83.728 L
305.481 83.728 L
304.966 82.182 304.543 80.725 304.777 79.689 C
304.777 79.689 L
304.794 79.614 304.815 79.538 304.84 79.462 C
304.84 79.462 L
305.085 78.727 305.653 78.269 306.356 78.11 C
306.356 78.11 L
307.392 77.876 308.849 78.299 310.395 78.814 C
310.395 78.814 L
312.162 79.403 312.879 79.5 313.093 79.451 C
313.093 79.451 L
313.093 79.451 313.089 79.452 313.081 79.455 C
313.081 79.455 L
312.917 79.509 312.802 79.683 312.785 79.76 C
312.785 79.76 L
312.833 79.546 312.736 78.829 312.147 77.062 C
313.333 76.667 L
312.147 77.062 L
311.632 75.515 311.21 74.059 311.444 73.023 C
311.444 73.023 L
311.461 72.947 311.481 72.871 311.507 72.795 C
311.507 72.795 L
311.752 72.06 312.32 71.602 313.023 71.444 C
313.023 71.444 L
314.059 71.21 315.515 71.632 317.062 72.147 C
316.667 73.333 L
317.062 72.147 L
318.829 72.736 319.546 72.833 319.76 72.785 C
319.76 72.785 L
319.76 72.785 319.756 72.785 319.748 72.788 C
319.748 72.788 L
319.584 72.843 319.469 73.016 319.451 73.093 C
319.451 73.093 L
319.5 72.879 319.403 72.162 318.814 70.395 C
318.419 69.209 L
320.791 68.419 L
P
G
WC
WF
R N
N
320.395 111.186 M
320.395 111.186 L
318.849 111.701 317.392 112.124 316.356 111.89 C
316.356 111.89 L
315.653 111.731 315.085 111.274 314.84 110.538 C
314.84 110.538 L
314.815 110.462 314.794 110.386 314.777 110.311 C
314.777 110.311 L
314.543 109.275 314.966 107.818 315.481 106.272 C
315.481 106.272 L
315.481 106.272 L
316.07 104.504 316.166 103.787 316.118 103.573 C
316.118 103.573 L
316.135 103.65 316.25 103.824 316.415 103.879 C
316.415 103.879 L
316.422 103.881 316.427 103.882 316.427 103.882 C
316.427 103.882 L
316.213 103.834 315.496 103.93 313.728 104.519 C
313.728 104.519 L
313.728 104.519 L
312.182 105.034 310.725 105.457 309.689 105.223 C
309.689 105.223 L
308.986 105.064 308.418 104.607 308.174 103.872 C
308.174 103.872 L
308.148 103.795 308.127 103.719 308.11 103.644 C
308.11 103.644 L
307.876 102.608 308.299 101.151 308.814 99.605 C
308.814 99.605 L
308.814 99.605 L
309.403 97.838 309.5 97.121 309.451 96.907 C
309.451 96.907 L
309.469 96.984 309.584 97.157 309.748 97.212 C
309.748 97.212 L
309.756 97.215 309.76 97.215 309.76 97.215 C
309.76 97.215 L
309.546 97.167 308.829 97.264 307.062 97.853 C
306.667 96.667 L
307.062 97.853 L
305.515 98.368 304.059 98.791 303.023 98.556 C
303.023 98.556 L
302.32 98.398 301.752 97.94 301.507 97.205 C
301.507 97.205 L
301.481 97.129 301.461 97.053 301.444 96.977 C
301.444 96.977 L
301.21 95.941 301.632 94.485 302.147 92.938 C
303.333 93.333 L
302.147 92.938 L
302.736 91.171 302.833 90.454 302.785 90.24 C
302.785 90.24 L
302.802 90.317 302.917 90.491 303.081 90.545 C
303.081 90.545 L
303.089 90.548 303.093 90.549 303.093 90.549 C
303.093 90.549 L
302.879 90.5 302.162 90.597 300.395 91.186 C
299.209 91.581 L
298.419 89.209 L
299.605 88.814 L
301.151 88.299 302.608 87.876 303.644 88.11 C
303.644 88.11 L
303.719 88.127 303.795 88.148 303.872 88.174 C
303.872 88.174 L
304.607 88.418 305.064 88.986 305.223 89.689 C
305.223 89.689 L
305.457 90.725 305.035 92.182 304.519 93.728 C
304.519 93.728 L
304.519 93.728 L
303.93 95.496 303.834 96.213 303.882 96.427 C
303.882 96.427 L
303.882 96.427 303.881 96.422 303.879 96.415 C
303.879 96.415 L
303.824 96.25 303.65 96.135 303.574 96.118 C
303.574 96.118 L
303.787 96.166 304.504 96.07 306.272 95.481 C
306.272 95.481 L
306.272 95.481 L
307.818 94.966 309.275 94.543 310.311 94.777 C
310.311 94.777 L
310.386 94.794 310.462 94.815 310.538 94.84 C
310.538 94.84 L
311.274 95.085 311.731 95.653 311.89 96.356 C
311.89 96.356 L
312.124 97.392 311.701 98.849 311.186 100.395 C
310.0 100.0 L
311.186 100.395 L
310.597 102.162 310.501 102.879 310.549 103.093 C
310.549 103.093 L
310.549 103.093 310.548 103.089 310.545 103.081 C
310.545 103.081 L
310.491 102.917 310.317 102.802 310.24 102.785 C
310.24 102.785 L
310.454 102.833 311.171 102.736 312.938 102.147 C
313.333 103.333 L
312.938 102.147 L
314.485 101.632 315.941 101.21 316.977 101.444 C
316.977 101.444 L
317.053 101.461 317.129 101.481 317.205 101.507 C
317.205 101.507 L
317.94 101.752 318.398 102.32 318.556 103.023 C
318.556 103.023 L
318.791 104.059 318.368 105.515 317.853 107.062 C
316.667 106.667 L
317.853 107.062 L
317.264 108.829 317.167 109.546 317.216 109.76 C
317.216 109.76 L
317.216 109.76 317.215 109.756 317.212 109.748 C
317.212 109.748 L
317.157 109.584 316.984 109.469 316.907 109.451 C
316.907 109.451 L
317.121 109.5 317.838 109.403 319.605 108.814 C
320.791 108.419 L
321.581 110.791 L
P
G
WC
WF
R N
N
290.245 51.226 M
290.245 51.226 L
240.245 61.226 L
239.019 61.471 L
238.529 59.019 L
239.755 58.774 L
289.755 48.774 L
290.981 48.529 L
291.471 50.981 L
P
G
WC
WF
R N
N
260.587 55.883 M
268.707 50.587 L
267.648 54.47 L
270.119 57.648 L
P
G
WC
WF
R N
N
260.314 55.464 M
260.314 55.464 L
268.433 50.169 L
269.535 49.45 L
269.189 50.719 L
268.13 54.602 L
267.648 54.47 L
268.042 54.164 L
270.513 57.341 L
271.321 58.379 L
270.028 58.139 L
260.496 56.374 L
259.267 56.147 L
260.314 55.464 L
260.861 56.301 M
260.587 55.883 L
260.678 55.391 L
270.21 57.156 L
270.119 57.648 L
269.724 57.955 L
267.253 54.777 L
267.099 54.58 L
267.165 54.339 L
268.224 50.456 L
268.707 50.587 L
268.98 51.006 L
260.861 56.301 L
P
G
WC
WF
R N
N
240.245 118.774 M
240.245 118.774 L
290.245 128.774 L
291.471 129.019 L
290.981 131.471 L
289.755 131.226 L
239.755 121.226 L
238.529 120.981 L
239.019 118.529 L
P
G
WC
WF
R N
N
269.413 125.883 M
259.881 127.648 L
262.352 124.47 L
261.293 120.587 L
P
G
WC
WF
R N
N
269.504 126.374 M
269.504 126.374 L
259.972 128.139 L
258.679 128.379 L
259.487 127.341 L
261.958 124.164 L
262.352 124.47 L
261.87 124.602 L
260.811 120.719 L
260.465 119.45 L
261.567 120.169 L
269.686 125.464 L
270.733 126.147 L
269.504 126.374 L
269.322 125.391 M
269.413 125.883 L
269.14 126.301 L
261.02 121.006 L
261.293 120.587 L
261.776 120.456 L
262.835 124.339 L
262.901 124.58 L
262.747 124.777 L
260.276 127.955 L
259.881 127.648 L
259.79 127.156 L
269.322 125.391 L
P
G
WC
WF
R N
pgSave restore
showpage
%%EOF
