%!PS-Adobe-3.0 EPSF-3.0
%%BoundingBox: 199 444 316 545
%%Creator: mschulze with JaxoDraw-2.1-0
%%Title: 
%%CreationDate: 11/7/2017
%%BeginProlog
/imStr 0 def /imageSrc {currentfile /ASCII85Decode filter /RunLengthDecode filter  imStr readstring pop } def
/BD {bind def} bind def
/D {def} BD
/C {curveto} BD
/L {lineto} BD
/M {moveto} BD
/R {grestore} BD
/G {gsave} BD
/N {newpath} BD
/P {closepath} BD
/EC {eoclip} BD
/WC {clip} BD
/EF {eofill} BD
/WF {fill} BD
/SG {setgray} BD
/SC {setrgbcolor} BD
/ISOF {
     dup findfont dup length 1 add dict begin {
             1 index /FID eq {pop pop} {D} ifelse
     } forall /Encoding ISOLatin1Encoding D
     currentdict end definefont
} BD
/NZ {dup 1 lt {pop 1} if} BD
/S {
     moveto 1 index stringwidth pop NZ sub
     1 index length 1 sub NZ div 0
     3 2 roll ashow newpath} BD
/FL [
    /AvantGarde-Book ISOF
    /AvantGarde-BookOblique ISOF
    /AvantGarde-Demi ISOF
    /AvantGarde-DemiOblique ISOF
    /Bookman-Demi ISOF
    /Bookman-DemiItalic ISOF
    /Bookman-Light ISOF
    /Bookman-LightItalic ISOF
    /Courier ISOF
    /Courier-Bold ISOF
    /Courier-BoldOblique ISOF
    /Courier-Oblique ISOF
    /Helvetica ISOF
    /Helvetica-Bold ISOF
    /Helvetica-BoldOblique ISOF
    /Helvetica-Narrow ISOF
    /Helvetica-Narrow-Bold ISOF
    /Helvetica-Narrow-BoldOblique ISOF
    /Helvetica-Narrow-Oblique ISOF
    /Helvetica-Oblique ISOF
    /NewCenturySchlbk-Bold ISOF
    /NewCenturySchlbk-BoldItalic ISOF
    /NewCenturySchlbk-Italic ISOF
    /NewCenturySchlbk-Roman ISOF
    /Palatino-Bold ISOF
    /Palatino-BoldItalic ISOF
    /Palatino-Italic ISOF
    /Palatino-Roman ISOF
    /Symbol findfont
    /Times-Bold ISOF
    /Times-BoldItalic ISOF
    /Times-Italic ISOF
    /Times-Roman ISOF
    /ZapfDingbats findfont
    /ZapfChancery-MediumItalic ISOF
] D
/F {
     FL exch get exch scalefont
     [1 0 0 -1 0 0] makefont setfont} BD
%%EndProlog
%%BeginSetup
<< /PageSize [612.0 792.0] /DeferredMediaSelection true /ImagingBBox null /ManualFeed false /NumCopies 1 >> pop 
%%EndSetup
%%Page: 1 1
/pgSave save def
792.0 0 exch translate 1 -1 scale[72 300 div 0 0 72 300 div 0 0]concat
G
[4.1666665 0.0 0.0 4.1666665 300.0 300.0] concat
N
0.0 0.0 M
468.0 0.0 L
468.0 648.0 L
0.0 648.0 L
0.0 0.0 L
P
WC
N
191.548 224.213 M
191.548 224.213 L
189.264 219.359 187.889 215.934 189.754 215.057 C
189.754 215.057 L
191.1 214.424 193.967 215.55 198.213 217.548 C
198.0 218.0 L
198.213 217.548 L
203.826 220.188 205.709 220.521 206.038 219.82 C
206.038 219.82 L
206.416 219.017 205.675 216.736 203.548 212.213 C
203.548 212.213 L
203.548 212.213 L
201.264 207.359 199.889 203.934 201.754 203.057 C
201.754 203.057 L
203.1 202.424 205.967 203.55 210.213 205.548 C
210.0 206.0 L
210.213 205.548 L
215.826 208.188 217.709 208.521 218.038 207.82 C
218.038 207.82 L
218.416 207.017 217.675 204.736 215.548 200.213 C
215.548 200.213 L
215.548 200.213 L
213.264 195.359 211.889 191.934 213.754 191.057 C
213.754 191.057 L
215.1 190.424 217.967 191.55 222.213 193.548 C
222.0 194.0 L
222.213 193.548 L
227.826 196.188 229.709 196.521 230.038 195.82 C
230.038 195.82 L
230.416 195.017 229.675 192.736 227.548 188.213 C
227.548 188.213 L
227.548 188.213 L
225.264 183.359 223.889 179.934 225.754 179.057 C
225.754 179.057 L
227.1 178.424 229.967 179.55 234.213 181.548 C
234.0 182.0 L
234.213 181.548 L
239.826 184.188 241.709 184.521 242.038 183.82 C
242.038 183.82 L
242.416 183.017 241.675 180.736 239.548 176.213 C
239.335 175.76 L
240.24 175.335 L
240.452 175.787 L
242.45 180.033 243.576 182.9 242.943 184.246 C
242.943 184.246 L
242.066 186.111 238.641 184.736 233.787 182.452 C
233.787 182.452 L
229.264 180.325 226.983 179.584 226.18 179.962 C
226.18 179.962 L
225.479 180.291 225.812 182.174 228.452 187.787 C
228.0 188.0 L
228.452 187.787 L
230.45 192.033 231.576 194.9 230.943 196.246 C
230.943 196.246 L
230.066 198.111 226.641 196.736 221.787 194.452 C
221.956 194.532 L
221.787 194.452 L
217.264 192.325 214.983 191.584 214.18 191.962 C
214.18 191.962 L
213.479 192.291 213.812 194.174 216.452 199.787 C
216.0 200.0 L
216.452 199.787 L
218.45 204.033 219.576 206.9 218.943 208.246 C
218.943 208.246 L
218.066 210.111 214.641 208.736 209.787 206.452 C
209.787 206.452 L
209.787 206.452 L
205.264 204.325 202.983 203.584 202.18 203.962 C
202.18 203.962 L
201.479 204.291 201.812 206.174 204.452 211.787 C
204.0 212.0 L
204.452 211.787 L
206.45 216.033 207.576 218.9 206.943 220.246 C
206.943 220.246 L
206.066 222.111 202.641 220.736 197.787 218.452 C
197.787 218.452 L
197.787 218.452 L
193.264 216.325 190.983 215.584 190.18 215.962 C
190.18 215.962 L
189.479 216.291 189.812 218.174 192.452 223.787 C
192.665 224.24 L
191.76 224.665 L
P
G
WC
WF
R N
N
196.243 224.0 M
196.243 226.343 194.343 228.243 192.0 228.243 C
189.657 228.243 187.757 226.343 187.757 224.0 C
187.757 221.657 189.657 219.757 192.0 219.757 C
194.343 219.757 196.243 221.657 196.243 224.0 C
P
G
WC
WF
R N
N
196.743 224.0 M
196.743 224.0 L
196.743 226.619 194.619 228.743 192.0 228.743 C
192.0 228.243 L
192.0 228.743 L
189.381 228.743 187.257 226.619 187.257 224.0 C
187.757 224.0 L
187.257 224.0 L
187.257 221.381 189.381 219.257 192.0 219.257 C
192.0 219.757 L
192.0 219.257 L
194.619 219.257 196.743 221.381 196.743 224.0 C
196.243 224.0 L
196.743 224.0 L
195.743 224.0 M
195.743 224.0 L
195.743 221.933 194.067 220.257 192.0 220.257 C
192.0 220.257 L
189.933 220.257 188.257 221.933 188.257 224.0 C
188.257 224.0 L
188.257 226.067 189.933 227.743 192.0 227.743 C
192.0 227.743 L
194.067 227.743 195.743 226.067 195.743 224.0 C
P
G
WC
WF
R N
N
192.473 224.161 M
192.473 224.161 L
190.782 229.142 189.425 232.558 187.568 231.927 C
187.568 231.927 L
186.205 231.465 185.036 228.607 183.527 224.161 C
184.0 224.0 L
183.527 224.161 L
181.556 218.358 180.523 216.805 179.89 217.02 C
179.89 217.02 L
179.125 217.279 178.093 219.391 176.473 224.161 C
176.0 224.0 L
176.473 224.161 L
174.782 229.142 173.425 232.558 171.568 231.927 C
171.568 231.927 L
170.205 231.465 169.036 228.607 167.527 224.161 C
168.0 224.0 L
167.527 224.161 L
165.556 218.358 164.523 216.805 163.89 217.02 C
163.89 217.02 L
163.125 217.279 162.093 219.391 160.473 224.161 C
160.0 224.0 L
160.473 224.161 L
158.782 229.142 157.425 232.558 155.568 231.927 C
155.568 231.927 L
154.205 231.465 153.036 228.607 151.527 224.161 C
152.0 224.0 L
151.527 224.161 L
149.556 218.358 148.523 216.805 147.89 217.02 C
147.89 217.02 L
147.125 217.279 146.093 219.391 144.473 224.161 C
144.0 224.0 L
144.473 224.161 L
142.782 229.142 141.425 232.558 139.568 231.927 C
139.568 231.927 L
138.205 231.465 137.036 228.607 135.527 224.161 C
136.0 224.0 L
135.527 224.161 L
133.556 218.358 132.523 216.805 131.89 217.02 C
131.89 217.02 L
131.125 217.279 130.093 219.391 128.473 224.161 C
128.313 224.634 L
127.366 224.313 L
127.527 223.839 L
129.036 219.393 130.205 216.535 131.568 216.073 C
131.568 216.073 L
133.425 215.442 134.782 218.858 136.473 223.839 C
136.473 223.839 L
138.093 228.609 139.125 230.721 139.89 230.98 C
139.89 230.98 L
140.523 231.195 141.556 229.642 143.527 223.839 C
143.527 223.839 L
145.036 219.393 146.205 216.535 147.568 216.073 C
147.568 216.073 L
149.425 215.442 150.782 218.858 152.473 223.839 C
152.473 223.839 L
154.093 228.609 155.125 230.721 155.89 230.98 C
155.89 230.98 L
156.523 231.195 157.556 229.642 159.527 223.839 C
159.527 223.839 L
161.036 219.393 162.205 216.535 163.568 216.073 C
163.568 216.073 L
165.425 215.442 166.782 218.858 168.473 223.839 C
168.473 223.839 L
170.093 228.609 171.125 230.721 171.89 230.98 C
171.89 230.98 L
172.523 231.195 173.556 229.642 175.527 223.839 C
175.527 223.839 L
177.036 219.393 178.205 216.535 179.568 216.073 C
179.568 216.073 L
181.425 215.442 182.782 218.858 184.473 223.839 C
184.473 223.839 L
186.093 228.609 187.125 230.721 187.89 230.98 C
187.89 230.98 L
188.523 231.195 189.556 229.642 191.527 223.839 C
191.687 223.366 L
192.634 223.687 L
P
G
WC
WF
R N
N
191.787 223.548 M
191.787 223.548 L
196.641 221.264 200.066 219.889 200.943 221.754 C
200.943 221.754 L
201.576 223.1 200.45 225.967 198.452 230.213 C
198.0 230.0 L
198.452 230.213 L
195.812 235.826 195.479 237.709 196.18 238.038 C
196.18 238.038 L
196.983 238.416 199.264 237.675 203.787 235.548 C
203.787 235.548 L
203.787 235.548 L
208.641 233.264 212.066 231.889 212.943 233.754 C
212.943 233.754 L
213.576 235.1 212.45 237.967 210.452 242.213 C
210.0 242.0 L
210.452 242.213 L
207.812 247.826 207.479 249.709 208.18 250.038 C
208.18 250.038 L
208.983 250.416 211.264 249.675 215.787 247.548 C
215.787 247.548 L
215.787 247.548 L
220.641 245.264 224.066 243.889 224.943 245.754 C
224.943 245.754 L
225.576 247.1 224.45 249.967 222.452 254.213 C
222.0 254.0 L
222.452 254.213 L
219.812 259.826 219.479 261.709 220.18 262.038 C
220.18 262.038 L
220.983 262.417 223.264 261.675 227.787 259.548 C
227.787 259.548 L
227.787 259.548 L
232.641 257.264 236.066 255.889 236.943 257.754 C
236.943 257.754 L
237.576 259.1 236.45 261.967 234.452 266.213 C
234.0 266.0 L
234.452 266.213 L
231.812 271.826 231.479 273.709 232.18 274.038 C
232.18 274.038 L
232.983 274.417 235.264 273.675 239.787 271.548 C
240.24 271.335 L
240.665 272.24 L
240.213 272.452 L
235.967 274.45 233.1 275.576 231.754 274.943 C
231.754 274.943 L
229.889 274.066 231.264 270.641 233.548 265.787 C
233.548 265.787 L
235.675 261.264 236.416 258.983 236.038 258.18 C
236.038 258.18 L
235.709 257.479 233.826 257.812 228.213 260.452 C
228.0 260.0 L
228.213 260.452 L
223.967 262.45 221.1 263.576 219.754 262.943 C
219.754 262.943 L
217.889 262.066 219.264 258.641 221.548 253.787 C
221.432 254.034 L
221.548 253.787 L
223.675 249.264 224.416 246.983 224.038 246.18 C
224.038 246.18 L
223.709 245.479 221.826 245.812 216.213 248.452 C
216.0 248.0 L
216.213 248.452 L
211.967 250.45 209.1 251.576 207.754 250.943 C
207.754 250.943 L
205.889 250.066 207.264 246.641 209.548 241.787 C
209.548 241.787 L
209.548 241.787 L
211.675 237.264 212.416 234.983 212.038 234.18 C
212.038 234.18 L
211.709 233.479 209.826 233.812 204.213 236.452 C
204.0 236.0 L
204.213 236.452 L
199.967 238.45 197.1 239.576 195.754 238.943 C
195.754 238.943 L
193.889 238.066 195.264 234.641 197.548 229.787 C
197.548 229.787 L
197.548 229.787 L
199.675 225.264 200.416 222.983 200.038 222.18 C
200.038 222.18 L
199.709 221.479 197.826 221.812 192.213 224.452 C
191.76 224.665 L
191.335 223.76 L
P
G
WC
WF
R N
pgSave restore
showpage
%%EOF
