%!PS-Adobe-3.0 EPSF-3.0
%%BoundingBox: 212 444 316 548
%%Creator: mschulze with JaxoDraw-2.1-0
%%Title: 
%%CreationDate: 11/7/2017
%%BeginProlog
/imStr 0 def /imageSrc {currentfile /ASCII85Decode filter /RunLengthDecode filter  imStr readstring pop } def
/BD {bind def} bind def
/D {def} BD
/C {curveto} BD
/L {lineto} BD
/M {moveto} BD
/R {grestore} BD
/G {gsave} BD
/N {newpath} BD
/P {closepath} BD
/EC {eoclip} BD
/WC {clip} BD
/EF {eofill} BD
/WF {fill} BD
/SG {setgray} BD
/SC {setrgbcolor} BD
/ISOF {
     dup findfont dup length 1 add dict begin {
             1 index /FID eq {pop pop} {D} ifelse
     } forall /Encoding ISOLatin1Encoding D
     currentdict end definefont
} BD
/NZ {dup 1 lt {pop 1} if} BD
/S {
     moveto 1 index stringwidth pop NZ sub
     1 index length 1 sub NZ div 0
     3 2 roll ashow newpath} BD
/FL [
    /AvantGarde-Book ISOF
    /AvantGarde-BookOblique ISOF
    /AvantGarde-Demi ISOF
    /AvantGarde-DemiOblique ISOF
    /Bookman-Demi ISOF
    /Bookman-DemiItalic ISOF
    /Bookman-Light ISOF
    /Bookman-LightItalic ISOF
    /Courier ISOF
    /Courier-Bold ISOF
    /Courier-BoldOblique ISOF
    /Courier-Oblique ISOF
    /Helvetica ISOF
    /Helvetica-Bold ISOF
    /Helvetica-BoldOblique ISOF
    /Helvetica-Narrow ISOF
    /Helvetica-Narrow-Bold ISOF
    /Helvetica-Narrow-BoldOblique ISOF
    /Helvetica-Narrow-Oblique ISOF
    /Helvetica-Oblique ISOF
    /NewCenturySchlbk-Bold ISOF
    /NewCenturySchlbk-BoldItalic ISOF
    /NewCenturySchlbk-Italic ISOF
    /NewCenturySchlbk-Roman ISOF
    /Palatino-Bold ISOF
    /Palatino-BoldItalic ISOF
    /Palatino-Italic ISOF
    /Palatino-Roman ISOF
    /Symbol findfont
    /Times-Bold ISOF
    /Times-BoldItalic ISOF
    /Times-Italic ISOF
    /Times-Roman ISOF
    /ZapfDingbats findfont
    /ZapfChancery-MediumItalic ISOF
] D
/F {
     FL exch get exch scalefont
     [1 0 0 -1 0 0] makefont setfont} BD
%%EndProlog
%%BeginSetup
<< /PageSize [612.0 792.0] /DeferredMediaSelection true /ImagingBBox null /ManualFeed false /NumCopies 1 >> pop 
%%EndSetup
%%Page: 1 1
/pgSave save def
792.0 0 exch translate 1 -1 scale[72 300 div 0 0 72 300 div 0 0]concat
G
[4.1666665 0.0 0.0 4.1666665 300.0 300.0] concat
N
0.0 0.0 M
468.0 0.0 L
468.0 648.0 L
0.0 648.0 L
0.0 0.0 L
P
WC
N
191.548 224.213 M
191.548 224.213 L
189.264 219.359 187.889 215.934 189.754 215.057 C
189.754 215.057 L
191.1 214.424 193.967 215.55 198.213 217.548 C
198.0 218.0 L
198.213 217.548 L
203.826 220.188 205.709 220.521 206.038 219.82 C
206.038 219.82 L
206.416 219.017 205.675 216.736 203.548 212.213 C
203.548 212.213 L
203.548 212.213 L
201.264 207.359 199.889 203.934 201.754 203.057 C
201.754 203.057 L
203.1 202.424 205.967 203.55 210.213 205.548 C
210.0 206.0 L
210.213 205.548 L
215.826 208.188 217.709 208.521 218.038 207.82 C
218.038 207.82 L
218.416 207.017 217.675 204.736 215.548 200.213 C
215.548 200.213 L
215.548 200.213 L
213.264 195.359 211.889 191.934 213.754 191.057 C
213.754 191.057 L
215.1 190.424 217.967 191.55 222.213 193.548 C
222.0 194.0 L
222.213 193.548 L
227.826 196.188 229.709 196.521 230.038 195.82 C
230.038 195.82 L
230.416 195.017 229.675 192.736 227.548 188.213 C
227.548 188.213 L
227.548 188.213 L
225.264 183.359 223.889 179.934 225.754 179.057 C
225.754 179.057 L
227.1 178.424 229.967 179.55 234.213 181.548 C
234.0 182.0 L
234.213 181.548 L
239.826 184.188 241.709 184.521 242.038 183.82 C
242.038 183.82 L
242.416 183.017 241.675 180.736 239.548 176.213 C
239.335 175.76 L
240.24 175.335 L
240.452 175.787 L
242.45 180.033 243.576 182.9 242.943 184.246 C
242.943 184.246 L
242.066 186.111 238.641 184.736 233.787 182.452 C
233.787 182.452 L
229.264 180.325 226.983 179.584 226.18 179.962 C
226.18 179.962 L
225.479 180.291 225.812 182.174 228.452 187.787 C
228.0 188.0 L
228.452 187.787 L
230.45 192.033 231.576 194.9 230.943 196.246 C
230.943 196.246 L
230.066 198.111 226.641 196.736 221.787 194.452 C
221.956 194.532 L
221.787 194.452 L
217.264 192.325 214.983 191.584 214.18 191.962 C
214.18 191.962 L
213.479 192.291 213.812 194.174 216.452 199.787 C
216.0 200.0 L
216.452 199.787 L
218.45 204.033 219.576 206.9 218.943 208.246 C
218.943 208.246 L
218.066 210.111 214.641 208.736 209.787 206.452 C
209.787 206.452 L
209.787 206.452 L
205.264 204.325 202.983 203.584 202.18 203.962 C
202.18 203.962 L
201.479 204.291 201.812 206.174 204.452 211.787 C
204.0 212.0 L
204.452 211.787 L
206.45 216.033 207.576 218.9 206.943 220.246 C
206.943 220.246 L
206.066 222.111 202.641 220.736 197.787 218.452 C
197.787 218.452 L
197.787 218.452 L
193.264 216.325 190.983 215.584 190.18 215.962 C
190.18 215.962 L
189.479 216.291 189.812 218.174 192.452 223.787 C
192.665 224.24 L
191.76 224.665 L
P
G
WC
WF
R N
N
196.243 224.0 M
196.243 226.343 194.343 228.243 192.0 228.243 C
189.657 228.243 187.757 226.343 187.757 224.0 C
187.757 221.657 189.657 219.757 192.0 219.757 C
194.343 219.757 196.243 221.657 196.243 224.0 C
P
G
WC
WF
R N
N
196.743 224.0 M
196.743 224.0 L
196.743 226.619 194.619 228.743 192.0 228.743 C
192.0 228.243 L
192.0 228.743 L
189.381 228.743 187.257 226.619 187.257 224.0 C
187.757 224.0 L
187.257 224.0 L
187.257 221.381 189.381 219.257 192.0 219.257 C
192.0 219.757 L
192.0 219.257 L
194.619 219.257 196.743 221.381 196.743 224.0 C
196.243 224.0 L
196.743 224.0 L
195.743 224.0 M
195.743 224.0 L
195.743 221.933 194.067 220.257 192.0 220.257 C
192.0 220.257 L
189.933 220.257 188.257 221.933 188.257 224.0 C
188.257 224.0 L
188.257 226.067 189.933 227.743 192.0 227.743 C
192.0 227.743 L
194.067 227.743 195.743 226.067 195.743 224.0 C
P
G
WC
WF
R N
N
192.452 223.787 M
192.452 223.787 L
194.736 228.641 196.111 232.066 194.246 232.943 C
194.246 232.943 L
192.9 233.576 190.033 232.45 185.787 230.452 C
186.0 230.0 L
185.787 230.452 L
180.174 227.812 178.291 227.479 177.962 228.18 C
177.962 228.18 L
177.584 228.983 178.325 231.264 180.452 235.787 C
180.452 235.787 L
180.452 235.787 L
182.736 240.641 184.111 244.066 182.246 244.943 C
182.246 244.943 L
180.9 245.576 178.033 244.45 173.787 242.452 C
174.0 242.0 L
173.787 242.452 L
168.174 239.812 166.291 239.479 165.962 240.18 C
165.962 240.18 L
165.584 240.983 166.325 243.264 168.452 247.787 C
168.905 248.749 L
168.452 247.787 L
170.736 252.641 172.111 256.066 170.246 256.943 C
170.246 256.943 L
168.9 257.576 166.033 256.45 161.787 254.452 C
162.0 254.0 L
161.787 254.452 L
156.174 251.812 154.291 251.479 153.962 252.18 C
153.962 252.18 L
153.584 252.983 154.325 255.264 156.452 259.787 C
156.452 259.787 L
156.452 259.787 L
158.736 264.641 160.111 268.066 158.246 268.943 C
158.246 268.943 L
156.9 269.576 154.033 268.45 149.787 266.452 C
150.0 266.0 L
149.787 266.452 L
144.174 263.812 142.291 263.48 141.962 264.18 C
141.962 264.18 L
141.584 264.983 142.325 267.264 144.452 271.787 C
144.665 272.24 L
143.76 272.665 L
143.548 272.213 L
141.55 267.967 140.424 265.1 141.057 263.754 C
141.057 263.754 L
141.934 261.889 145.359 263.264 150.213 265.548 C
150.213 265.548 L
154.736 267.675 157.017 268.416 157.82 268.038 C
157.82 268.038 L
158.521 267.709 158.188 265.826 155.548 260.213 C
156.0 260.0 L
155.548 260.213 L
153.55 255.967 152.424 253.1 153.057 251.754 C
153.057 251.754 L
153.934 249.889 157.359 251.264 162.213 253.548 C
161.707 253.309 L
162.213 253.548 L
166.736 255.675 169.017 256.416 169.82 256.038 C
169.82 256.038 L
170.521 255.709 170.188 253.826 167.548 248.213 C
168.0 248.0 L
167.548 248.213 L
165.55 243.967 164.424 241.1 165.057 239.754 C
165.057 239.754 L
165.934 237.889 169.359 239.264 174.213 241.548 C
174.213 241.548 L
174.213 241.548 L
178.736 243.675 181.017 244.416 181.82 244.038 C
181.82 244.038 L
182.521 243.709 182.188 241.826 179.548 236.213 C
180.0 236.0 L
179.548 236.213 L
177.55 231.967 176.424 229.1 177.057 227.754 C
177.057 227.754 L
177.934 225.889 181.359 227.264 186.213 229.548 C
186.213 229.548 L
186.213 229.548 L
190.736 231.675 193.017 232.416 193.82 232.038 C
193.82 232.038 L
194.521 231.709 194.188 229.826 191.548 224.213 C
191.335 223.76 L
192.24 223.335 L
P
G
WC
WF
R N
N
191.787 223.548 M
191.787 223.548 L
196.641 221.264 200.066 219.889 200.943 221.754 C
200.943 221.754 L
201.576 223.1 200.45 225.967 198.452 230.213 C
198.0 230.0 L
198.452 230.213 L
195.812 235.826 195.479 237.709 196.18 238.038 C
196.18 238.038 L
196.983 238.416 199.264 237.675 203.787 235.548 C
203.787 235.548 L
203.787 235.548 L
208.641 233.264 212.066 231.889 212.943 233.754 C
212.943 233.754 L
213.576 235.1 212.45 237.967 210.452 242.213 C
210.0 242.0 L
210.452 242.213 L
207.812 247.826 207.479 249.709 208.18 250.038 C
208.18 250.038 L
208.983 250.416 211.264 249.675 215.787 247.548 C
215.787 247.548 L
215.787 247.548 L
220.641 245.264 224.066 243.889 224.943 245.754 C
224.943 245.754 L
225.576 247.1 224.45 249.967 222.452 254.213 C
222.0 254.0 L
222.452 254.213 L
219.812 259.826 219.479 261.709 220.18 262.038 C
220.18 262.038 L
220.983 262.417 223.264 261.675 227.787 259.548 C
227.787 259.548 L
227.787 259.548 L
232.641 257.264 236.066 255.889 236.943 257.754 C
236.943 257.754 L
237.576 259.1 236.45 261.967 234.452 266.213 C
234.0 266.0 L
234.452 266.213 L
231.812 271.826 231.479 273.709 232.18 274.038 C
232.18 274.038 L
232.983 274.417 235.264 273.675 239.787 271.548 C
240.24 271.335 L
240.665 272.24 L
240.213 272.452 L
235.967 274.45 233.1 275.576 231.754 274.943 C
231.754 274.943 L
229.889 274.066 231.264 270.641 233.548 265.787 C
233.548 265.787 L
235.675 261.264 236.416 258.983 236.038 258.18 C
236.038 258.18 L
235.709 257.479 233.826 257.812 228.213 260.452 C
228.0 260.0 L
228.213 260.452 L
223.967 262.45 221.1 263.576 219.754 262.943 C
219.754 262.943 L
217.889 262.066 219.264 258.641 221.548 253.787 C
221.432 254.034 L
221.548 253.787 L
223.675 249.264 224.416 246.983 224.038 246.18 C
224.038 246.18 L
223.709 245.479 221.826 245.812 216.213 248.452 C
216.0 248.0 L
216.213 248.452 L
211.967 250.45 209.1 251.576 207.754 250.943 C
207.754 250.943 L
205.889 250.066 207.264 246.641 209.548 241.787 C
209.548 241.787 L
209.548 241.787 L
211.675 237.264 212.416 234.983 212.038 234.18 C
212.038 234.18 L
211.709 233.479 209.826 233.812 204.213 236.452 C
204.0 236.0 L
204.213 236.452 L
199.967 238.45 197.1 239.576 195.754 238.943 C
195.754 238.943 L
193.889 238.066 195.264 234.641 197.548 229.787 C
197.548 229.787 L
197.548 229.787 L
199.675 225.264 200.416 222.983 200.038 222.18 C
200.038 222.18 L
199.709 221.479 197.826 221.812 192.213 224.452 C
191.76 224.665 L
191.335 223.76 L
P
G
WC
WF
R N
N
192.213 224.452 M
192.213 224.452 L
187.359 226.736 183.934 228.111 183.057 226.246 C
183.057 226.246 L
182.424 224.9 183.55 222.033 185.548 217.787 C
186.0 218.0 L
185.548 217.787 L
188.188 212.174 188.521 210.291 187.82 209.962 C
187.82 209.962 L
187.017 209.584 184.736 210.325 180.213 212.452 C
180.213 212.452 L
180.213 212.452 L
175.359 214.736 171.934 216.111 171.057 214.246 C
171.057 214.246 L
170.424 212.9 171.55 210.033 173.548 205.787 C
174.0 206.0 L
173.548 205.787 L
176.188 200.174 176.521 198.291 175.82 197.962 C
175.82 197.962 L
175.017 197.584 172.736 198.325 168.213 200.452 C
168.213 200.452 L
168.213 200.452 L
163.359 202.736 159.934 204.111 159.057 202.246 C
159.057 202.246 L
158.424 200.9 159.55 198.033 161.548 193.787 C
162.0 194.0 L
161.548 193.787 L
164.188 188.174 164.521 186.291 163.82 185.962 C
163.82 185.962 L
163.017 185.584 160.736 186.325 156.213 188.452 C
156.213 188.452 L
156.213 188.452 L
151.359 190.736 147.934 192.111 147.057 190.246 C
147.057 190.246 L
146.424 188.9 147.55 186.033 149.548 181.787 C
150.0 182.0 L
149.548 181.787 L
152.188 176.174 152.521 174.291 151.82 173.962 C
151.82 173.962 L
151.017 173.584 148.736 174.325 144.213 176.452 C
143.76 176.665 L
143.335 175.76 L
143.787 175.548 L
148.033 173.55 150.9 172.424 152.246 173.057 C
152.246 173.057 L
154.111 173.934 152.736 177.359 150.452 182.213 C
150.452 182.213 L
148.325 186.736 147.584 189.017 147.962 189.82 C
147.962 189.82 L
148.291 190.521 150.174 190.188 155.787 187.548 C
156.0 188.0 L
155.787 187.548 L
160.033 185.55 162.9 184.424 164.246 185.057 C
164.246 185.057 L
166.111 185.934 164.736 189.359 162.452 194.213 C
162.532 194.044 L
162.452 194.213 L
160.325 198.736 159.584 201.017 159.962 201.82 C
159.962 201.82 L
160.291 202.521 162.174 202.188 167.787 199.548 C
168.0 200.0 L
167.787 199.548 L
172.033 197.55 174.9 196.424 176.246 197.057 C
176.246 197.057 L
178.111 197.934 176.736 201.359 174.452 206.213 C
174.452 206.213 L
174.452 206.213 L
172.325 210.736 171.584 213.017 171.962 213.82 C
171.962 213.82 L
172.291 214.521 174.174 214.188 179.787 211.548 C
180.0 212.0 L
179.787 211.548 L
184.033 209.55 186.9 208.424 188.246 209.057 C
188.246 209.057 L
190.111 209.934 188.736 213.359 186.452 218.213 C
186.452 218.213 L
186.452 218.213 L
184.325 222.736 183.584 225.017 183.962 225.82 C
183.962 225.82 L
184.291 226.521 186.174 226.188 191.787 223.548 C
192.24 223.335 L
192.665 224.24 L
P
G
WC
WF
R N
pgSave restore
showpage
%%EOF
